<?xml version="1.0" encoding="UTF-8" standalone="no"?>
<!-- Created with Inkscape (http://www.inkscape.org/) -->

<svg
   width="1920"
   height="1080"
   viewBox="0 0 507.99996 285.75"
   version="1.1"
   id="svg1"
   xml:space="preserve"
   inkscape:version="1.3.2 (091e20ef0f, 2023-11-25)"
   sodipodi:docname="server_links.svg"
   xmlns:inkscape="http://www.inkscape.org/namespaces/inkscape"
   xmlns:sodipodi="http://sodipodi.sourceforge.net/DTD/sodipodi-0.dtd"
   xmlns:xlink="http://www.w3.org/1999/xlink"
   xmlns="http://www.w3.org/2000/svg"
   xmlns:svg="http://www.w3.org/2000/svg"><sodipodi:namedview
     id="namedview1"
     pagecolor="#505050"
     bordercolor="#ffffff"
     borderopacity="1"
     inkscape:showpageshadow="0"
     inkscape:pageopacity="0"
     inkscape:pagecheckerboard="1"
     inkscape:deskcolor="#d1d1d1"
     inkscape:document-units="mm"
     showgrid="false"
     inkscape:zoom="0.53543895"
     inkscape:cx="816.1528"
     inkscape:cy="418.34835"
     inkscape:window-width="1887"
     inkscape:window-height="1048"
     inkscape:window-x="0"
     inkscape:window-y="0"
     inkscape:window-maximized="1"
     inkscape:current-layer="layer1"><inkscape:grid
       id="grid5"
       units="px"
       originx="0"
       originy="0"
       spacingx="0.26458331"
       spacingy="0.26458333"
       empcolor="#0099e5"
       empopacity="0.30196078"
       color="#0099e5"
       opacity="0.14901961"
       empspacing="5"
       dotted="false"
       gridanglex="30"
       gridanglez="30"
       visible="false" /></sodipodi:namedview><defs
     id="defs1" /><g
     inkscape:label="Слой 1"
     inkscape:groupmode="layer"
     id="layer1"><rect
       style="fill:#ffffff;stroke:none;stroke-width:9.22499;stroke-linecap:square;stroke-dasharray:none;stroke-opacity:0.995772;paint-order:stroke fill markers"
       id="rect5"
       width="508.53485"
       height="285.78119"
       x="0.37493509"
       y="0.090201274" /><image
       preserveAspectRatio="none"
       inkscape:svg-dpi="96"
       width="92.816856"
       height="92.816856"
       style="image-rendering:optimizeQuality"
       xlink:href="data:image/svg+xml;base64,PD94bWwgdmVyc2lvbj0iMS4wIiBlbmNvZGluZz0iVVRGLTgiIHN0YW5kYWxvbmU9Im5vIj8+Cjwh&#10;LS0gQ3JlYXRlZCB3aXRoIElua3NjYXBlIChodHRwOi8vd3d3Lmlua3NjYXBlLm9yZy8pIC0tPgoK&#10;PHN2ZwogICB3aWR0aD0iNTEyIgogICBoZWlnaHQ9IjUxMiIKICAgdmlld0JveD0iMCAwIDEzNS40&#10;NjY2NyAxMzUuNDY2NjciCiAgIHZlcnNpb249IjEuMSIKICAgaWQ9InN2ZzEiCiAgIHhtbDpzcGFj&#10;ZT0icHJlc2VydmUiCiAgIGlua3NjYXBlOnZlcnNpb249IjEuMyAoMGUxNTBlZDZjNCwgMjAyMy0w&#10;Ny0yMSkiCiAgIHNvZGlwb2RpOmRvY25hbWU9ImZhdmljb24uc3ZnIgogICB4bWxuczppbmtzY2Fw&#10;ZT0iaHR0cDovL3d3dy5pbmtzY2FwZS5vcmcvbmFtZXNwYWNlcy9pbmtzY2FwZSIKICAgeG1sbnM6&#10;c29kaXBvZGk9Imh0dHA6Ly9zb2RpcG9kaS5zb3VyY2Vmb3JnZS5uZXQvRFREL3NvZGlwb2RpLTAu&#10;ZHRkIgogICB4bWxucz0iaHR0cDovL3d3dy53My5vcmcvMjAwMC9zdmciCiAgIHhtbG5zOnN2Zz0i&#10;aHR0cDovL3d3dy53My5vcmcvMjAwMC9zdmciPjxzb2RpcG9kaTpuYW1lZHZpZXcKICAgICBpZD0i&#10;bmFtZWR2aWV3MSIKICAgICBwYWdlY29sb3I9IiM1MDUwNTAiCiAgICAgYm9yZGVyY29sb3I9IiNm&#10;ZmZmZmYiCiAgICAgYm9yZGVyb3BhY2l0eT0iMSIKICAgICBpbmtzY2FwZTpzaG93cGFnZXNoYWRv&#10;dz0iMCIKICAgICBpbmtzY2FwZTpwYWdlb3BhY2l0eT0iMCIKICAgICBpbmtzY2FwZTpwYWdlY2hl&#10;Y2tlcmJvYXJkPSIxIgogICAgIGlua3NjYXBlOmRlc2tjb2xvcj0iI2QxZDFkMSIKICAgICBpbmtz&#10;Y2FwZTpkb2N1bWVudC11bml0cz0ibW0iCiAgICAgaW5rc2NhcGU6em9vbT0iMS4wMjU1MjMxIgog&#10;ICAgIGlua3NjYXBlOmN4PSI0MjAuNzYwODkiCiAgICAgaW5rc2NhcGU6Y3k9IjI4MS44MDc0MSIK&#10;ICAgICBpbmtzY2FwZTp3aW5kb3ctd2lkdGg9IjE5MjAiCiAgICAgaW5rc2NhcGU6d2luZG93LWhl&#10;aWdodD0iMTAxMSIKICAgICBpbmtzY2FwZTp3aW5kb3cteD0iMCIKICAgICBpbmtzY2FwZTp3aW5k&#10;b3cteT0iMCIKICAgICBpbmtzY2FwZTp3aW5kb3ctbWF4aW1pemVkPSIxIgogICAgIGlua3NjYXBl&#10;OmN1cnJlbnQtbGF5ZXI9ImxheWVyMSIgLz48ZGVmcwogICAgIGlkPSJkZWZzMSIgLz48ZwogICAg&#10;IGlua3NjYXBlOmxhYmVsPSLQodC70L7QuSAxIgogICAgIGlua3NjYXBlOmdyb3VwbW9kZT0ibGF5&#10;ZXIiCiAgICAgaWQ9ImxheWVyMSI+PHBhdGgKICAgICAgIHN0eWxlPSJmaWxsOiMwMDAwMDA7c3Ry&#10;b2tlLXdpZHRoOjAuMzU2MzQiCiAgICAgICBkPSJtIDUwLjA5NDQ1NCwxMzMuNDAyMzggYyAtMC4x&#10;MjUyNjUsLTAuMDMyNSAtMC4xMzI3MDEsLTAuMTEyMDYgLTAuMDkyNTcsLTAuOTkwNjMgMC4wMjQw&#10;NCwtMC41MjU0NCAwLjA0MjkzLC0xLjMwMzI0IDAuMDQyMTEsLTEuNzI4NDMgLTAuMDAzNywtMi4w&#10;MzMyNyAtMy41OWUtNCwtMy4xNzYzNiAwLjAxMjQ3LC0zLjg4NDQxIDAuMDA4NywtMC40ODIyOSAt&#10;MC4wMjc0NywtMC45MjkxNSAtMC4wOTYyMiwtMS4xODc5NSBsIC0wLjExMDIxNSwtMC40MTQ4NCAt&#10;NC4zNjU5MiwtMC4wMTk1IGMgLTIuNjYwNDA4LC0wLjAxMTkgLTQuNDAwMTUsLTAuMDQ3OCAtNC40&#10;NTM1MywtMC4wOTIyIC0wLjA2NDY2LC0wLjA1MzcgLTAuMDgzMSwtMC45NjgyMiAtMC4wNzA0Nywt&#10;My40ODc3OSAwLjAwOTUsLTEuODc4MzEgLTAuMDA1MiwtMy42ODY2MyAtMC4wMzI1NSwtNC4wMTg1&#10;IGwgLTAuMDQ5NzIsLTAuNjAzNCAtNC40MTIzNzEsLTAuMDM3NyAtNC40MTIzNzgsLTAuMDM3NyAt&#10;MC4wMzc3MSwtNC4xMTA2OSAtMC4wMzc3LC00LjExMDY2IC00LjQzMDU3OSwtMC4wMTk1IC00LjQz&#10;MDU4LC0wLjAxOTUgLTAuMDE5NDgsLTQuMDkxMjIgLTAuMDE5NDgsLTQuMDkxMjEgLTQuNDY4NjEs&#10;LTAuMDE5NSAtNC40Njg2MDksLTAuMDE5NSAtMC4wMTkxOSwtOC4yMDE4OTUgLTAuMDE5MTksLTgu&#10;MjAxODk2IC00LjQzMTIzNzUsLTAuMDE5NDggLTQuNDMxMjMsLTAuMDE5NDggViA0Ni45Nzk0MDYg&#10;OS45ODM5NDMzIEggMTguNTUyMDM5IDMxLjg2NDU5MyB2IDMuODg0Mzk0NyAzLjg4NDQwNCBoIC04&#10;LjgxNTUxNSBjIC04LjEwODA5NSwwIC04LjgyMzgyNCwwLjAxMDA0IC04LjkxOTAzMywwLjEyNDcy&#10;OCAtMC4wODczNCwwLjEwNTIzNSAtMC4xMDM1MTgsNC42NDU0NzggLTAuMTAzNTE4LDI5LjA1NzU2&#10;IHYgMjguOTMyODMzIGwgNC40Njg2MSwwLjAxOTQ4IDQuNDY4NjA5LDAuMDE5NDggMC4wMTkxOSw4&#10;LjIwMTg5NCAwLjAxOTE5LDguMjAxOTA1IDQuMzI5OTY1LDAuMDE5NDYgYyAzLjA3MTIxLDAuMDEz&#10;ODMgNC4zNTk3MDgsMC4wNDQxNSA0LjQzMjI1MiwwLjEwNDM1OCAwLjA4MzAyLDAuMDY4OTQgMC4w&#10;OTg1NCwwLjU0Nzk4MyAwLjA4MjQxLDIuNTQ0OTY1IGwgLTAuMDE5ODYsMi40NjAxIC0zLjU0NDk3&#10;OSwwLjAzODQxIC0zLjU0NDk5NCwwLjAzODQxIDMuNTQ0OTk0LDAuMDM2OTggMy41NDQ5NzksMC4w&#10;MzY5OCAwLjAyMDQ2LDEuNDQ0MDIxIGMgMC4wMjY1LDEuODY5MjU0IC0wLjU3OTQzNywxLjY0NDAz&#10;NCA0LjQ5MzYzNCwxLjY3MDI4NCAyLjg5MTI1MiwwLjAxNSA0LjI1ODEzMSwwLjA0NzcgNC4zMjU0&#10;MTksMC4xMDM1MiAwLjA3ODU0LDAuMDY1MiAwLjA5ODM4LDAuODYxMTQgMC4wOTgzOCwzLjk0ODE5&#10;IDAsMy4yNzMyNiAwLjAxNzI1LDMuODk5NjkgMC4xMTIwNjYsNC4wODI1OCBsIDAuMTEyMDY3LDAu&#10;MjE2MDQgNC4zNTY4NzksMC4wMzc3IDQuMzU2ODc5LDAuMDM3NyAwLjAzNzcxLDMuOTU5ODIgYyAw&#10;LjA0MDg0LDQuMjg1ODEgMC4wMzAzMSw0LjE4NDEzIDAuNDM4MjYxLDQuMjUxNTcgMC4zNjI5NDks&#10;MC4wNiAzNS4xMTMxMDYsMC4wNjE5IDM1LjI2OTQxNCwxMGUtNCAwLjA2NTYyLC0wLjAyNTIgMC4x&#10;MTkzMDcsLTAuMDkzOSAwLjExOTMwNywtMC4xNTI3MiAwLC0wLjA1ODggMC4wODQ1NSwtMC4xMzkw&#10;OSAwLjE4Nzg4LC0wLjE3ODM3IGwgMC4xODc4ODcsLTAuMDcxNCAwLjAxOTU3LC0zLjkwNTM4IDAu&#10;MDE5NTYsLTMuOTA1MzggNC4yMTIxODksLTAuMDE5NSBjIDQuMTY5ODg4LC0wLjAxOTMgNC4yMTI1&#10;ODMsLTAuMDIxMSA0LjI1MjQ2NSwtMC4xNzM1NSAwLjAyNDYzLC0wLjA5NDEgMC4xMjQ1MjYsLTAu&#10;MTcwOTEgMC4yNTY3NTcsLTAuMTk3MzYgbCAwLjIxNjQ4LC0wLjA0MzMgdiAtMy44NjMyOCBjIDAs&#10;LTMuNjMxOTkgMC4wMDgxLC0zLjg3MDY4IDAuMTM2NDg3LC0zLjk4NjgxIDAuMTIyMTM3LC0wLjEx&#10;MDUyIDAuNTYwMzA5LC0wLjEyNTk2IDQuMTY3MjQ2LC0wLjE0NjcyIDMuMjk1MjYsLTAuMDE4OSA0&#10;LjA4MjAzLC0wLjA0MzEgNC4zMTE2OSwtMC4xMzIzMSBsIDAuMjgwOTQsLTAuMTA5MDkgMC4wMjA4&#10;LC0zLjk4MjQ2NyBjIDAuMDE4LC0zLjQ0MjUyOSAwLjAzNjIsLTMuOTkyMTUxIDAuMTMzOSwtNC4w&#10;NTM5NDkgMC4wNjc2LC0wLjA0MjgyIDEuNzY5NzYsLTAuMDcyMDEgNC4yMzMyNCwtMC4wNzI2MiAy&#10;LjI2NjA1LC03LjA3ZS00IDQuMjI2MDIsLTAuMDIyMzMgNC4zNTU0NywtMC4wNDgyNSBsIDAuMjM1&#10;MzcsLTAuMDQ3MDIgMC4wMTkyLC04LjE1NTQxOSAwLjAxOTEsLTguMTU1NDIgNC40MTIzOCwtMC4w&#10;NDA5OCBjIDIuNDI2OCwtMC4wMjI1NSA0LjQyMDg5LC0wLjA0OCA0LjQzMTMyLC0wLjA1NjU5IDAu&#10;MDEwNCwtMC4wMDg2IDAuMDEwNCwtMTMuMDA2NjA2IDAsLTI4Ljg4NDU1MiBsIC0wLjAxOSwtMjgu&#10;ODY5MDAyIC0wLjE2OTcxLC0wLjAyNDExIGMgLTAuMDkzMywtMC4wMTMyOCAtMC4xNjk3MSwtMC4w&#10;NjkwNiAtMC4xNjk3MSwtMC4xMjM5MjIgMCwtMC4xODYyODEgLTAuMjM1NTcsLTAuMTkxMzg4IC04&#10;LjgzMDkyLC0wLjE5MTM4OCBoIC04LjU5MjMgViAxMy44NjcyNyA5Ljk4MjY1NzggbCAxMy4xMDUx&#10;MywwLjAxOTA0MiAxMy4xMDUxMywwLjAxOTA0IDAuMDE4OSwzNi45NzY2MTEgMC4wMTg4LDM2Ljk3&#10;NjYxMyAtNC40NjkwMSwwLjAxOTQ4IC00LjQ2OTAzLDAuMDE5NDggLTAuMDE5MSw4LjIwMTkwMSAt&#10;MC4wMTkyLDguMjAxODgzIC00LjQzMDg5LDAuMDE5NSAtNC40MzA5LDAuMDE5NSAtMC4wMTk1LDQu&#10;MDkxMjIgLTAuMDE5NSw0LjA5MTIxIC00LjQ2ODI5LDAuMDE5NSAtNC40NjgyOSwwLjAxOTUgLTAu&#10;MDE5NSw0LjEyODkyIC0wLjAxOTUsNC4xMjg5MyAtNC40MzA1OTgsMC4wMTk1IC00LjQzMDU4OCww&#10;LjAxOTUgLTAuMDE5NDgsNC4wOTEyMSAtMC4wMTk0OCw0LjA5MTIxIC00LjQzMDU4LDAuMDE5NSAt&#10;NC40MzA1OCwwLjAxOTUgLTAuMDE5NDgsNC4xMjk1MiAtMC4wMTk0OCw0LjEyOTU0IC0xNy42Mywt&#10;MC4wMDkgYyAtOS42OTY0OTQsLTAuMDA0IC0xNy42OTEyOTIsLTAuMDI0NiAtMTcuNzY2MjA5LC0w&#10;LjA0NCB6IG0gMS42MjQxMDcsLTQyLjk5NTczNCBjIC0wLjE1NDU5OSwtMC4xODk1NjggLTAuNDY4&#10;MDI3LC0wLjU2ODQ0IC0wLjY5NjUxMiwtMC44NDE5MzUgLTAuMjI4NDg1LC0wLjI3MzUwMiAtMC41&#10;MTY5ODYsLTAuNjI2ODM1IC0wLjY0MTExLC0wLjc4NTE5NSAtMC41NDM2OTgsLTAuNjkzNjI0IC0w&#10;Ljc0MzM5NSwtMC45NDIyOTYgLTEuODg1MDUyLC0yLjM0NzMzOCAtMC42NjM3MzgsLTAuODE2ODcz&#10;IC0xLjMwODYyNSwtMS42MTM0NDkgLTEuNDMzMDc3LC0xLjc3MDE3NCAtMC4xMjQ0NTEsLTAuMTU2&#10;NzI2IC0wLjYzMzU2OCwtMC43ODc3MTIgLTEuMTMxMzc2LC0xLjQwMjE5MiAtMC40OTc4MDcsLTAu&#10;NjE0NDcyIC0wLjk3MTAxNCwtMS4yMDUyOTMgLTEuMDUxNTc2LC0xLjMxMjkyNSAtMC4wODA1Niwt&#10;MC4xMDc2MzIgLTAuMjY3MjM5LC0wLjMzNDYyMyAtMC40MTQ4NDEsLTAuNTA0NDI5IC0wLjE0NzU5&#10;NiwtMC4xNjk4MDUgLTAuNTA1OTUzLC0wLjYxMDk0MSAtMC43OTYzNDMsLTAuOTgwMzA5IC0wLjI5&#10;MDM4MiwtMC4zNjkzNjEgLTAuNzg3MTM2LC0wLjk4Njc3NSAtMS4xMDM4OTUsLTEuMzcyMDIzIC0w&#10;LjY3Nzg3OCwtMC44MjQ0NSAtMC42NDUxNDEsLTAuNjYzNTY2IC0wLjc4NjE5NiwtMy44NjMyMTUg&#10;LTAuMDMwMTcsLTAuNjg0NDg2IC0wLjA2MjExLC0xLjM4MDI4MSAtMC4wNzA5MiwtMS41NDYyMTgg&#10;LTAuMDA4OCwtMC4xNjU5MzkgLTAuMDQwMTYsLTAuNzkzODQ5IC0wLjA2OTU4LC0xLjM5NTM2MSAt&#10;MC4wMjk0MiwtMC42MDE1MTkgLTAuMDY2OTcsLTEuMzQ4MjMgLTAuMDgzNTcsLTEuNjU5MzU5IC0w&#10;LjAxNjU3LC0wLjMxMTEzIC0wLjA2NDczLC0xLjM0NjM0MiAtMC4xMDcwODcsLTIuMzAwNDY5IC0w&#10;LjA0MjM0LC0wLjk1NDEyOCAtMC4wOTM3NCwtMS45MDQ0ODUgLTAuMTE0MjMxLC0yLjExMTkwMyAt&#10;MC4wMjA1MywtMC4yMDc0MjQgLTAuMDU1NjIsLTAuODUyMzA0IC0wLjA3Nzk5LC0xLjQzMzA4NCAt&#10;MC4wMjI0LC0wLjU4MDc3MiAtMC4wNzI3OSwtMS42ODM4NjEgLTAuMTExOTYxLC0yLjQ1MTMxOSAt&#10;MC4wMzkxOSwtMC43Njc0NSAtMC4wOTIwOCwtMS44MTk2MzEgLTAuMTE3NTA5LC0yLjMzODE3NyAt&#10;MC4wMjU0NSwtMC41MTg1NTQgLTAuMDc2NTMsLTEuNTUzNzU4IC0wLjExMzU1MiwtMi4zMDA0Njkg&#10;LTAuMDM3MDMsLTAuNzQ2NzEgLTAuMTAwNzUzLC0yLjA4NzQwMSAtMC4xNDE2LC0yLjk3OTMwMyAt&#10;MC4wNDA4NCwtMC44OTE5IC0wLjEwOTI4MiwtMi4yNDk1NTIgLTAuMTUyMDYsLTMuMDE3MDAyIC0w&#10;LjEyNDI2NSwtMi4yMjkwOTggLTAuMTU1ODc0LC0yLjg3NDU4MiAtMC4yMzA4NTksLTQuNzE0MDgg&#10;LTAuMDM4ODksLTAuOTU0MTI3IC0wLjA5MjA2LC0xLjg1NTE1MiAtMC4xMTgxNTEsLTIuMDAyMjYy&#10;IC0wLjAzMzY3LC0wLjE4OTgxMyAtMC4wMTUwOCwtMC4yOTQzMjQgMC4wNjM5MSwtMC4zNTk4OTUg&#10;MC4xMTI5MDIsLTAuMDkzNjkgMTIuNjM1NjAxLC0zLjI1NzAyMyAxMi44OTM2MiwtMy4yNTcwMjMg&#10;MC4xNDQ1NSwwIDAuMjQ3OTE5LDAuMDczNTQgMS45MDYyNzcsMS4zNTU2MDcgMC41MzkyOTQsMC40&#10;MTY5MzIgMS42NDIzODMsMS4yNTc5NCAyLjQ1MTMyLDEuODY4OTEyIDAuODA4OTM2LDAuNjEwOTYy&#10;IDEuNjY3NzIxLDEuMjcyNDMxIDEuOTA4NDA0LDEuNDY5OTExIDAuNTQwNjQ1LDAuNDQzNjA3IDAu&#10;NTA4MzcyLDAuNDQzMzE2IDIuMjIzNDMyLDAuMDE5NjQgMS43MjI2OTgsLTAuNDI1NTYzIDEuNTc5&#10;NDE3LC0wLjQzNjAwNyAyLjUwMTY4MSwwLjE4MjM0NyAxLjA5OTM3OSwwLjczNzA5NiAwLjk5NjM3&#10;NiwxLjEyNzE3NCAwLjk3NzkxMywtMy43MDMzOTEgLTAuMDA5MSwtMi4zNzY2OTMgMC4wMTMwNiwt&#10;NC4xNjc0MSAwLjA1MTg4LC00LjIwMTAyIDAuMDgyMDksLTAuMDcxIDEyLjI5ODk3MSwtMy4xMjg2&#10;NzUgMTIuNTEyODk4LC0zLjEzMTc4NyAwLjA4Mjk2LC03LjQ3ZS00IDAuNjU5OTc0LDAuMzE1NzEz&#10;IDEuMjgyMjI2LDAuNzA0MjY4IDAuNjIyMjU4LDAuMzg4NTQ3IDEuNDc5Mzc4LDAuOTIzMTc1IDEu&#10;OTA0NzAxLDEuMTg4MDQ4IDAuNDI1MzMyLDAuMjY0ODcyIDAuOTM0NDQ5LDAuNTg3MzY0IDEuMTMx&#10;Mzc3LDAuNzE2NjYyIDAuNjQ5NDk0LDAuNDI2Mzk4IDEuNDA5ODA3LDAuOTE3NDE4IDEuNjc4LDEu&#10;MDgzNjcgMC4xNDUxOTksMC4wOTAwMSAwLjQzMzY5MywwLjI3MDAzMiAwLjY0MTExOCwwLjQwMDA2&#10;MSAxLjYwMjkzNCwxLjAwNDg3IDMuNzY2NDE3LDIuMzU1MTA5IDQuNDg3Nzk2LDIuODAwODU4IDAu&#10;NDc3MDY4LDAuMjk0Nzg4IDEuMzA4NjMyLDAuODE0Mjg5IDEuODQ3OTI2LDEuMTU0NDYgbCAwLjk4&#10;MDUxOSwwLjYxODQ5NiAwLjAyNjEzLDAuNTI3OTY4IGMgMC4wMTQ0MSwwLjI5MDM5IC0wLjAxMTcy&#10;LDEuMDU0MDcgLTAuMDU4MDgsMS42OTcwNjggLTAuMDQ2MzYsMC42NDMwMDcgLTAuMTM0MTIsMi4x&#10;NzAzNjYgLTAuMTk1MDYyLDMuMzk0MTM2IC0wLjA2MDkyLDEuMjIzNzc5IC0wLjE0NDIzNSwyLjcw&#10;MDIyMyAtMC4xODUwODcsMy4yODA5OTYgLTAuMDQwODQsMC41ODA3NzkgLTAuMDk0MTIsMS40NDYy&#10;ODIgLTAuMTE4Mzc1LDEuOTIzMzQzIC0wLjAyNDI3LDAuNDc3MDY4IC0wLjA1NzE5LDEuMDU0MDcg&#10;LTAuMDczMTYsMS4yODIyMzQgLTAuMDE1OTgsMC4yMjgxNTYgLTAuMDQ5ODgsMC44NzMwNDMgLTAu&#10;MDc1MjQsMS40MzMwNzYgLTAuMDI1MzgsMC41NjAwMzMgLTAuMDYxMjEsMS4yMjE4ODkgLTAuMDc5&#10;NjMsMS40NzA3OTMgLTAuMDE4NDQsMC4yNDg5MDQgLTAuMDY4NzYsMS4wNjM0OTIgLTAuMTExODk0&#10;LDEuODEwMjAzIC0wLjA0MzE1LDAuNzQ2NzEgLTAuMTEyMTU3LDEuOTE3NjkxIC0wLjE1MzM3NCwy&#10;LjYwMjE2OCAtMC4wNDEyMSwwLjY4NDQ4NiAtMC4xMDU1NDIsMS44NTU0NjcgLTAuMTQyOTMsMi42&#10;MDIxNyAtMC4wOTIwOCwxLjgzODk4OSAtMC4yMDcwNSwzLjg1NjQyMiAtMC4zNDYwNTMsNi4wNzE3&#10;MyAtMC4wNjM3NSwxLjAxNjM2MiAtMC4xNDY2ODUsMi41MDk3NzUgLTAuMTg0MjUxLDMuMzE4NzEx&#10;IC0wLjAzNzU1LDAuODA4OTM3IC0wLjA4NTAyLDEuNjc0NDQgLTAuMTA1NDM3LDEuOTIzMzQ0IC0w&#10;LjAyMDQ2LDAuMjQ4OTAzIC0wLjA3ODgsMS4yNDMyMzQgLTAuMTI5NzY3LDIuMjA5NjE5IC0wLjA1&#10;MjYzLDAuOTk4ODAzIC0wLjEyNzcxNSwxLjgwMDA4NyAtMC4xNzM4ODksMS44NTY3NDMgLTAuMDgx&#10;NiwwLjEwMDExOCAtMTIuMTU4NjYyLDMuMTQxNTQ1IC0xMi40NjIyMTMsMy4xMzg0MTcgLTAuMDg5&#10;MTYsLTcuNDdlLTQgLTAuMzgyMjQ3LC0wLjE5NjgzMSAtMC42NTEzMDgsLTAuNDM1MzY1IEMgNzYu&#10;MjI1ODM4LDgzLjc1NjU1IDc1LjY4OTg3NSw4My4yODk4NTkgNzUuMzAzODY1LDgyLjk1Nzk5MSA3&#10;NC45MTc4NjMsODIuNjI2MTEzIDc0LjQxMTA1Myw4Mi4xODQ4ODIgNzQuMTc3NjI1LDgxLjk3NzQ1&#10;NyA3My45NDQxOSw4MS43NzAwMzkgNzMuNTU1MzIyLDgxLjQzMDYyMyA3My4zMTM0NzMsODEuMjIz&#10;MjA2IDczLjA3MTYyNCw4MS4wMTU3ODggNzIuMzcyNjcyLDgwLjQwNDg0IDcxLjc2MDI1Miw3OS44&#10;NjU1NTQgNjkuMDU5NTMsNzcuNDg3MzE2IDY4Ljg4Mzk2MSw3Ny4zMzkwMTkgNjguNzY5MDUsNzcu&#10;MzM4OSBjIC0wLjE4NzM5NCwtMS44N2UtNCAtMC4yNDc3OTIsMC4zMTgwNzIgLTAuMjQ3NzkyLDEu&#10;MzA1NjUzIDAsMS4xMTI1NDEgLTAuMDEyOTksMS4xNDczNzUgLTAuNDU5NzM5LDEuMjI5NzQzIC0w&#10;LjE0MTIzNSwwLjAyNjA2IC0wLjMzMjc4OCwwLjA5NDY3IC0wLjQyNTY2NywwLjE1MjQ4NSAtMC4w&#10;OTI4OCwwLjA1Nzg1IC0wLjY5OTYwMywwLjIzOTc1OSAtMS4zNDgyOSwwLjQwNDI5MyAtMC42NDg2&#10;NzksMC4xNjQ1MzUgLTEuMjI5NzI4LDAuMzQwOTAyIC0xLjI5MTIwNywwLjM5MTkzIC0wLjA5NzIx&#10;LDAuMDgwNjkgLTAuMTA0NjMxLDAuNTIyOTIxIC0wLjA1NjgxLDMuMzkwMTM0IGwgMC4wNTQ5NSwz&#10;LjI5NzM2MiAtMC4yOTE5NTEsMC4wNzYyMyBjIC0wLjMzNDMxNywwLjA4NzMgLTEyLjM2NTc1Niwz&#10;LjA4NzA0NSAtMTIuNTY5MTY1LDMuMTMzODEgLTAuMDg4ODEsMC4wMjA0NiAtMC4yMjgyMDEsLTAu&#10;MDg1MDYgLTAuNDE0ODM0LC0wLjMxMzkwNiB6IG0gMS45NzA3OCwtMi42OTc1MzUgYyAwLjI1NDg5&#10;LC0wLjA2MjU3IDAuNTgyMjM1LC0wLjE0NzI2NyAwLjcyNzQzNCwtMC4xODgxNTYgMC4xNDUxOTIs&#10;LTAuMDQwOTEgMi4xMTA1NDQsLTAuNTMyOTQxIDQuMzY3NDUsLTEuMDkzNDIyIDIuMjU2OTAxLC0w&#10;LjU2MDQ5NSA0LjE0NzQyNSwtMS4wNTU1NjIgNC4yMDExNTUsLTEuMTAwMTU1IDAuMTE4OTQyLC0w&#10;LjA5ODcxIDAuMTA4NzE0LC0zLjc5NDc0MiAtMC4wMTA4MywtMy45MDYwMTggLTAuMDQzLC0wLjA0&#10;MDA5IC0wLjMwMjMyLC0wLjAxMDA0IC0wLjYzODE1MywwLjA3MzkgLTAuMzExMTI5LDAuMDc3Nzgg&#10;LTAuNzY5MzM4LDAuMTg5OTYzIC0xLjAxODIzNSwwLjI0OTI5MiAtMS4xMzk4MDQsMC4yNzE3MTkg&#10;LTIuMzU4NjE4LDAuNTc4NzggLTIuNTY3OTk5LDAuNjQ2OTcxIC0xLjM2MjcyOCwwLjQ0MzgyMyAt&#10;MS4zOTAwMzcsMC4zNzc4NzkgLTEuNDM0OTEyLC0zLjQ2NTgyMiAtMC4wMTg2NiwtMS41OTU0NzUg&#10;LTAuMDU4OTgsLTIuOTI0NTY0IC0wLjA4OTY4LC0yLjk1MzUzIC0wLjAzMDY4LC0wLjAyODk3IC0x&#10;LjA0MDEwMSwwLjE5NzYyMiAtMi4yNDMxMzIsMC41MDM1MzMgLTEuMjAzMDMyLDAuMzA1OTA0IC0y&#10;LjIxNjI4NywwLjU1NzM2IC0yLjI1MTY4MiwwLjU1ODc3OSAtMC4wNjA4NSwwLjAwMjMgLTAuMDIx&#10;MzYsMi42ODg1NTQgMC4wNjYwNyw0LjQ5MDM4NyAwLjAyMjEsMC40NTYzMjggMC4wNTgyMywxLjU0&#10;MjQ0NyAwLjA4MDI4LDIuNDEzNjA5IDAuMDIyMDIsMC44NzExNjMgMC4wNDkxMywxLjgwNDU0NiAw&#10;LjA2MDMyLDIuMDc0MTk3IDAuMDExMTIsMC4yNjk2NDIgMC4wMjYxMywwLjc4NzI0OSAwLjAzMzMs&#10;MS4xNTAyMzMgMC4wMTQ4NSwwLjc1MjkzNyAtMC4wMTg4OSwwLjcyNzI4NiAwLjcxODY0NywwLjU0&#10;NjE1NSB6IG0gMjUuMzU1NzQ0LC02LjM0MDQ0MyBjIDAuNTc5NjgyLC0wLjE0ODE2MiAxLjM5MzM4&#10;OSwtMC4zNTEwMSAxLjgwODIyMywtMC40NTA3NjYgMi44MzEzMTEsLTAuNjgwODcyIDYuMTk3MzQs&#10;LTEuNTYwNDU1IDYuMjc3MTk5LC0xLjY0MDMxNSAwLjEwNTU5NCwtMC4xMDU2MDEgMC4xNTY4NDYs&#10;LTAuNTA4OSAwLjIwNTEwMywtMS42MTQxMDIgMC4wMTc3NywtMC40MDY3MjcgMC4wNTUxNywtMS4x&#10;MDAwODEgMC4wODMwOCwtMS41NDA3ODMgMC4wNjY1MiwtMS4wNDk1MjQgMC45NzMyMTcsLTEuMTQ3&#10;ODQ2IC02LjM3NjgyLDAuNjkxNDg3IC0xLjE4MjI5MiwwLjI5NTg2MiAtMi4zNjM4MywwLjU4OTA5&#10;NyAtMi42MjU2NDIsMC42NTE2MjkgLTAuNTgzMDcxLDAuMTM5MjYzIC0wLjU5MTIwOSwwLjE1Njgz&#10;NyAtMC42MDQ5MzEsMS4zMDYwNzkgLTAuMDA1OSwwLjQ3NzA2IC0wLjAyOTM0LDEuMzE3MTEzIC0w&#10;LjA1MjYzLDEuODY2Nzc2IC0wLjA1MDE3LDEuMTg1NDU3IC0wLjE4ODQ2MiwxLjEwNjk1NyAxLjI4&#10;NjM5OSwwLjcyOTk5NSB6IE0gNTkuMzI0NTc5LDgwLjc2OTI2MSBjIDAuMjI1MzIsLTAuMDYzMDEg&#10;MC41Mjg0NjEsLTAuMTQ3MTE2IDAuNjczNjU5LC0wLjE4NjkyNCAwLjE0NTE5MiwtMC4wMzk3OSAx&#10;LjExMjUxOSwtMC4yNzYyODcgMi4xNDk2MTksLTAuNTI1NTE5IDEuMDM3MDk0LC0wLjI0OTIxNyAx&#10;Ljk4NzQ1MSwtMC40ODUwNDkgMi4xMTE5MDMsLTAuNTI0MDU2IDAuMTI0NDUxLC0wLjAzODk3IDAu&#10;NjcwNzAzLC0wLjE3ODQ1OCAxLjIxMzg5MywtMC4zMDk4OSAwLjU0MzE5OSwtMC4xMzE0MzIgMS4w&#10;MjU0MTcsLTAuMjYyMzE5IDEuMDcxNjA3LC0wLjI5MDg2OCAwLjA1MTk2LC0wLjAzMjEgMC4xMDI1&#10;MjUsLTAuNDg2MzYyIDAuMTMyNjM0LC0xLjE5MTUxOSAwLjEyMTE3NSwtMi44MzgwNTMgMC4xNDk2&#10;MjUsLTQuMDY0OTUyIDAuMDk1NzYsLTQuMTI5MjUzIC0wLjA0OTUsLTAuMDU5MDUgLTcuNDQ1Mzk2&#10;LDEuNzI3NjE4IC03Ljk1NzkyNSwxLjkyMjQ4NSBsIC0wLjE2NTU5NCwwLjA2MjkzIDAuMDI2Mjgs&#10;Mi4wOTY3MzMgYyAwLjAxNDQ4LDEuMTUzMTk3IDAuMDI5MjcsMi4zNDI4MDYgMC4wMzI5MiwyLjY0&#10;MzU1OCAwLjAwNzUsMC42MTcwNjIgLTAuMDA3NywwLjYwNjQzOSAwLjYxNTE5NiwwLjQzMjI5NyB6&#10;IE0gODEuMTI2OSw3NS40NDcxMDEgYyA3LjMwNDgwMywtMS44MjUxMTkgNi41MDA2LC0xLjUwOTA2&#10;OSA2LjU2NzA5NiwtMi41ODA4NyAwLjA1NzEyLC0wLjkyMDgzOCAwLjI3NzA2NSwtNS4xMDkwNjIg&#10;MC4zMjU1NjgsLTYuMjAwMDc5IDAuMDE2NTcsLTAuMzczMzU2IDAuMDY2NTIsLTEuMzU3NjU5IDAu&#10;MTEwOTEsLTIuMTg3MzM1IDAuMDQ0NDIsLTAuODI5Njc1IDAuMDk0MTYsLTEuODgxODU2IDAuMTEw&#10;NTczLC0yLjMzODE3OCAwLjAxNjQyLC0wLjQ1NjMyOCAwLjA1Mzc2LC0xLjEwMjAyMSAwLjA4Mjg5&#10;LC0xLjQzNDg4MyAwLjA3ODMzLC0wLjg5NDAxNSAwLjA5NjQ0LC0wLjg4NzgxIC0xLjQ2MDkyMywt&#10;MC41MDA1NTQgLTEuNDQzMzQyLDAuMzU4OTAyIC0xLjY0OTcxNCwwLjM3NTI1MSAtMS45MzIyMTks&#10;MC4xNTMwMjMgbCAtMC4yMDQzODcsLTAuMTYwNzY1IDAuMDEzMDYsLTEuNzA2MDEyIGMgMC4wMDc1&#10;LC0wLjkzODMgMC4wMDk3LC0xLjc0ODQzMSAwLjAwNTksLTEuODAwMjg4IC0wLjAxMTI3LC0wLjE0&#10;Mzc4IC0wLjIzMjM3NCwtMC4xMTY4MzYgLTEuMzUyNzAxLDAuMTY0ODQxIC0xLjcwMzM5MSwwLjQy&#10;ODI3MyAtMi41NjA1OTMsMC42NDI4MiAtMy42NzAyMywwLjkxODYxNCAtMS4zNjAyMiwwLjMzODA3&#10;MyAtMS4xODM5OTQsLTAuMDcwNCAtMS4yODE2ODksMi45NzA2NTcgLTAuMDM0NjQsMS4wNzg2Mzkg&#10;LTAuMDczNjEsMS40OTEyMDMgLTAuMTQ2MjE0LDEuNTQ3MzYgLTAuMTc5NjM4LDAuMTM4OTk0IC0z&#10;LjYwMTAzOCwwLjk1ODkzNSAtMy42Nzg0MjYsMC44ODE1MzIgLTAuMDU4NjgsLTAuMDU4NjggLTAu&#10;MDg5MzgsLTUuNjE5MTQzIC0wLjAzNTM5LC02LjQyNjQyOSAwLjAxMDA0LC0wLjE0OTU3NCAtMC4w&#10;MjY3MiwtMC4xOTMxNTggLTAuMTc3NzQ5LC0wLjIxMDc4NSAtMC4yMzkwNDIsLTAuMDI3OTIgLTcu&#10;MDk0OTY4LDEuNjgzNjUzIC03LjE1ODk3MSwxLjc4NzIwOSAtMC4wMjU5LDAuMDQxODggLTAuMDU2&#10;ODksMS4yNzQwNzMgLTAuMDY4OTgsMi43MzgyNTkgLTAuMDM3OTIsNC42MDQwODkgMC4yMTk3NzMs&#10;NC4wMTQyMyAtMS45OTI0ODIsNC41NjA4MSAtMS45NTA3NDIsMC40ODE5NjUgLTEuOTM5OTkyLDAu&#10;NDgyMzM5IC0xLjk0MjY3MiwtMC4wNjcyNyAtNy40NmUtNCwtMC4yMTkwOTMgLTAuMDEzNzQsLTEu&#10;MDI2MjYxIC0wLjAyODIyLC0xLjc5MzcxOCAtMC4wMTQ0MSwtMC43Njc0NSAtMC4wNDg5NywtMi45&#10;MjI3MiAtMC4wNzY3NywtNC43ODk0OTYgLTAuMDI3NzcsLTEuODY2Nzc3IC0wLjA2NDEzLC0zLjkw&#10;MzI1NCAtMC4wODA4LC00LjUyNTUxMyAtMC4wMTY2NSwtMC42MjIyNTkgLTAuMDMyMSwtMS41OTgw&#10;NzQgLTAuMDM0NDIsLTIuMTY4NDc3IGwgLTAuMDA0NSwtMS4wMzcwOTIgaCAtMC4yMTIzNTEgYyAt&#10;MC4xMTY3OTMsMCAtMi4yNDY2MTIsMC41MTIwMjggLTQuNzMyOTMxLDEuMTM3ODQxIC0yLjQ4NjMy&#10;NSwwLjYyNTgxMiAtNC42NTYzNTUsMS4xNjkxODkgLTQuODIyMjkyLDEuMjA3NTE4IC0wLjc1ODI3&#10;NiwwLjE3NTEyIC0xLjI1NDA1OSwwLjMyNDM3MyAtMS4yOTQ0MTgsMC4zODk2NjcgLTAuMDY1MDIs&#10;MC4xMDUxOTggLTAuMDI0MTgsMi44ODgzNzEgMC4wNzY2OSw1LjIyMjMzMSAwLjAyNTA4LDAuNTgw&#10;NzczIDAuMDY0MDUsMi4wNTcyMjQgMC4wODY1OCwzLjI4MDk5NCAwLjAyMjU1LDEuMjIzNzc4IDAu&#10;MDU2NzQsMi40MTE3MjIgMC4wNzYwMywyLjYzOTg4NyAwLjAxOTI2LDAuMjI4MTYzIDAuMDUzMzgs&#10;MS4xNDQ1NzUgMC4wNzU3NSwyLjAzNjQ3NyAwLjAyMjQsMC44OTE5MDEgMC4wNTUzOSwyLjE4MTY3&#10;NiAwLjA3MzQ2LDIuODY2MTYgMC4wMTc5OSwwLjY4NDQ4NCAwLjA1MzYsMi4xNzc4OTggMC4wNzkw&#10;OCwzLjMxODcxMSAwLjA1NzU2LDIuNTc3Nzk1IDAuMDI2MzYsMi40NzIzMiAwLjY3MDY1OCwyLjI2&#10;Mjg5NSAwLjEyNzQwMiwtMC4wNDE0MyAyLjE2NjI5LC0wLjU1MzIxOCA0LjUzMDg3NCwtMS4xMzcz&#10;NDIgMi4zNjQ1NzYsLTAuNTg0MTM5IDQuNTE5ODUzLC0xLjEyMzAzNyA0Ljc4OTQ5NiwtMS4xOTc1&#10;NjYgMC4yNjk2NDMsLTAuMDc0NTEgMC44MTI3MDYsLTAuMjEwMTI3IDEuMjA2ODA5LC0wLjMwMTMz&#10;NSAwLjM5NDA5NSwtMC4wOTEyMiAwLjg4NjI0MywtMC4yMTMyMjUgMS4wOTM2NiwtMC4yNzExMjgg&#10;MC45MzU1MTYsLTAuMjYxMTc3IDkuNTE5ODc0LC0yLjM3MjUzNSA5LjY0NjI1MSwtMi4zNzI1MzUg&#10;MC4xMTg2ODEsMCAwLjE0NjEwMiw1LjAwODg3NCAwLjAzMyw2LjAyNzA3MiAtMC4wOTc0MywwLjg3&#10;NzExMiAtMC43MzkwNTEsMC45NjMyNSA2LjczNTM1NiwtMC45MDQyNDMgeiBtIDUuODk1ODExLC0x&#10;Ni42MjYzMjIgYyAxLjM1MjY3MiwtMC4zMzMzODUgMS4yNzEwODEsLTAuMjc4OTI0IDEuMjk3NzU1&#10;LC0wLjg2NjI0MyAwLjAwNjgsLTAuMTQ1MTkxIDAuMDM0OTQsLTAuNzczMTA5IDAuMDYzMDksLTEu&#10;Mzk1MzY4IDAuMDI4MDcsLTAuNjIyMjUxIDAuMDY3OTMsLTEuMjY3MTM4IDAuMDg4NjEsLTEuNDMz&#10;MDc2IDAuMDIwNjEsLTAuMTY1OTM5IDAuMDUzMjQsLTAuNzI1OTcyIDAuMDcyMzQsLTEuMjQ0NTE4&#10;IDAuMDE5MTEsLTAuNTE4NTQ3IDAuMDkxMTIsLTIuMDExOTY4IDAuMTU5OTQzLC0zLjMxODcwNCAw&#10;LjA2ODgzLC0xLjMwNjc0NCAwLjEzNDc2MywtMi42NDc0MjYgMC4xNDY1NSwtMi45NzkzMDIgMC4w&#10;MTE3OSwtMC4zMzE4NjkgMC4wNDU2MSwtMS4wODcwNiAwLjA3NTA5LC0xLjY3ODIxIDAuMDU5NzMs&#10;LTEuMTk1ODc4IDAuMDcxMjIsLTEuMTcwNzc5IC0wLjQ2MjQzNiwtMS4wMDgxODYgLTAuNDU0ODI2&#10;LDAuMTM4NTg1IC0wLjg0NjI4NiwwLjI0MDg3OCAtMS42MTQwMzUsMC40MjE3OTIgLTAuNDM1NTgx&#10;LDAuMTAyNjM3IC0wLjkxMDc2LDAuMjIxMDU3IC0xLjA1NTk1MiwwLjI2MzE0OCAtMC4xNDUxOTgs&#10;MC4wNDIxMSAtMS43MDYzOTIsMC40MzQ4NjUgLTMuNDY5MzIxLDAuODcyODIgLTMuNzEzODM3LDAu&#10;OTIyNjE1IC0zLjMzMTc0LDAuNzI4Nzc4IC0zLjM2NzA4MiwxLjcwODEyNCAtMC4xMDA1MDcsMi43&#10;ODQ5MzYgLTAuMDk2NTcsMy4wMDMyMTUgMC4wNTQxMiwzLjAwMzIxNSAwLjA3Nzk5LDAgMS41NjIz&#10;MjksLTAuMzU2Mzg2IDMuMjk4NTE3LC0wLjc5MTk2OCAzLjk4NzkwNiwtMS4wMDA0OTYgMy45NTYx&#10;NCwtMS4wMDMzMSAzLjg5NzU3OSwwLjM0NTE1OSAtMC4wMTUxNSwwLjM0OTQ1IC0wLjA1MDk5LDEu&#10;NzIxNDk1IC0wLjA3OTU4LDMuMDQ4OTc4IC0wLjAyODU5LDEuMzI3NDgzIC0wLjA2MDY5LDIuNTgz&#10;MzExIC0wLjA3MTI5LDIuNzkwNzI4IC0wLjA0Mzc1LDAuODU0Mzk1IC0wLjA0MzQ1LDIuMzAzOTAz&#10;IDMuNWUtNCwyLjM3NTAyOCAwLjA2NDgsMC4xMDQ4NDcgMC4wOTM5LDAuMTAxNDI5IDAuOTY1NjAy&#10;LC0wLjExMzQxNyB6IG0gLTUuMjM0MzA1LC0yLjkwODExOCBjIDMuMzAxMDAyLC0wLjgxODg1MSAy&#10;LjkyMzkyMiwtMC41NTEyMzggMi45NDE2OSwtMi4wODc2NjggMC4wMDgsLTAuNjk0ODQ4IDAuMDI5&#10;MzQsLTEuNTY0MTI5IDAuMDQ3MzMsLTEuOTMxNzQzIDAuMDMyNCwtMC42NjE1MDYgMC4wMzA5OSwt&#10;MC42Njc5MTEgLTAuMTM1NDkzLC0wLjYyMjY0NyAtMC4wOTI1MywwLjAyNTE2IC0xLjQwNzA4OSww&#10;LjM1NDMzMyAtMi45MjEyNDksMC43MzE1MTggLTMuMzUxNTAxLDAuODM0ODggLTIuODkwMjY4LDAu&#10;MzMxMzkxIC0yLjk4MjY5OSwzLjI1NTk2MyBsIC0wLjA0MjM0LDEuMzM4OCBoIDAuMTY3MjE0IGMg&#10;MC4wOTE5OCwwIDEuNDA4NDQ4LC0wLjMwNzg5NiAyLjkyNTUwNSwtMC42ODQyMjMgeiBNIDMyLjIy&#10;Mjg5NywyNi4wNzEyMzMgMzIuMDE1NDgsMjYuMDM5NjU0IHYgLTMuODc5Mzg2IC0zLjg3OTM5NCBo&#10;IDguODYzMTQ2IDguODYzMTM4IGwgLTAuMDE5NTcsMy45MDMyNTUgLTAuMDE5NTYsMy45MDMyNTMg&#10;LTguNjM2MTkxLDAuMDA3NyBjIC00Ljc0OTg5OSwwLjAwNDUgLTguNzI5NTI2LC0wLjAwNjggLTgu&#10;ODQzNjA4LC0wLjAyMzg5IHogbSA1My43NzE4OTYsMC4wMDM3IGMgLTAuMDI3NjMsLTAuMDI3NjMg&#10;LTAuMDUwMzEsLTEuNzkyNzQ4IC0wLjA1MDMxLC0zLjkyMjQzNCB2IC0zLjg3MjEzNyBsIDguNjky&#10;NzU3LDAuMDE5MTkgOC42OTI3NSwwLjAxOTE5IDAuMDE5NiwzLjgwMDQwMSBjIDAuMDE0MSwyLjc0&#10;MzY0MiAtMC4wMDQsMy44MjkwMDEgLTAuMDY1OCwzLjkwMzI1MyAtMC4wOTEyLDAuMTA5ODcyIC0x&#10;Ny4xNzk3MjMsMC4xNjE4MzIgLTE3LjI4ODk4MSwwLjA1MjU2IHogbSAtMzUuODM3OCwtOC40MTYx&#10;NzEgYyAtMC4yMDM5NDUsLTAuNjE1NjIyIC0wLjI3ODkyOSwtMi41MDIyMzQgLTAuMTA2MzE3LC0y&#10;LjY3NDg0NyAwLjA1ODM5LC0wLjA1ODM4IDAuMDY3NDksLTAuMzQ0NDA0IDAuMDI5NzksLTAuOTM5&#10;MDQ3IC0wLjA3MTk3LC0xLjEzNTc1OSAtMC4wNjY1MiwtMi43NTY5NTQgMC4wMTE2NSwtMy40NTcy&#10;MjEgbCAwLjA2MzE2LC0wLjU2NTY5MSA0LjI2ODQ2NCwtMC4wMTk0OCA0LjI2ODQ2NCwtMC4wMTk0&#10;ODMgMC4yMDE0NiwtMC4yMjYxMTE1IDAuMjAxNDY2LC0wLjIyNjExMTQgMC4wMjYzNiwtMy44MzY2&#10;Njc4IGMgMC4wMTQ0OCwtMi4xMTAxNyAwLjA1MDAyLC0zLjg3NDkxNDIgMC4wNzg4OSwtMy45MjE2&#10;NTYxIDAuMDM4NDQsLTAuMDYyMjU4IDIuMzYzNDk0LC0wLjA4NDk4OCA4LjY4MzYxMywtMC4wODQ5&#10;ODggaCA4LjYzMTA5MiBsIDAuMDE5NDgsNC4xMjk1Mjg0IDAuMDE5NDgsNC4xMjk1Mjk0IDQuNDY4&#10;OTQ2LDAuMDE5NDgzIDQuNDY4OTQ1LDAuMDE5NDgzIHYgMy44ODM3OTczIDMuODgzODA3IGggLTE3&#10;LjY1MTg3IGMgLTE0LjA1NDU2MSwwIC0xNy42NTgyMzUsLTAuMDE5MTkgLTE3LjY4MzEwMiwtMC4w&#10;OTQyOCB6IgogICAgICAgaWQ9InBhdGgxIiAvPjwvZz48L3N2Zz4K&#10;"
       id="image1"
       x="202.42361"
       y="9.4760857" /><text
       xml:space="preserve"
       style="font-size:19.05px;line-height:0;font-family:'Pixelify Sans';-inkscape-font-specification:'Pixelify Sans';fill:#ff6600;stroke:none;stroke-width:9.22499;stroke-linecap:square;stroke-dasharray:none;stroke-opacity:0.995772;paint-order:stroke fill markers"
       x="114.58263"
       y="118.57169"
       id="text5"><tspan
         sodipodi:role="line"
         id="tspan5"
         style="font-size:19.05px;fill:#ff6600;stroke-width:9.225"
         x="114.58263"
         y="118.57169">WasteLand Origin community</tspan></text><image
       preserveAspectRatio="none"
       inkscape:svg-dpi="96"
       width="33.639126"
       height="25.495251"
       style="image-rendering:optimizeQuality"
       xlink:href="data:image/svg+xml;base64,PHN2ZyB4bWxucz0iaHR0cDovL3d3dy53My5vcmcvMjAwMC9zdmciIHZpZXdCb3g9IjAgMCAxMjcu&#10;MTQgOTYuMzYiPjxkZWZzPjxzdHlsZT4uY2xzLTF7ZmlsbDojNTg2NWYyO308L3N0eWxlPjwvZGVm&#10;cz48ZyBpZD0i5Zu+5bGCXzIiIGRhdGEtbmFtZT0i5Zu+5bGCIDIiPjxnIGlkPSJEaXNjb3JkX0xv&#10;Z29zIiBkYXRhLW5hbWU9IkRpc2NvcmQgTG9nb3MiPjxnIGlkPSJEaXNjb3JkX0xvZ29fLV9MYXJn&#10;ZV8tX1doaXRlIiBkYXRhLW5hbWU9IkRpc2NvcmQgTG9nbyAtIExhcmdlIC0gV2hpdGUiPjxwYXRo&#10;IGNsYXNzPSJjbHMtMSIgZD0iTTEwNy43LDguMDdBMTA1LjE1LDEwNS4xNSwwLDAsMCw4MS40Nyww&#10;YTcyLjA2LDcyLjA2LDAsMCwwLTMuMzYsNi44M0E5Ny42OCw5Ny42OCwwLDAsMCw0OSw2LjgzLDcy&#10;LjM3LDcyLjM3LDAsMCwwLDQ1LjY0LDAsMTA1Ljg5LDEwNS44OSwwLDAsMCwxOS4zOSw4LjA5QzIu&#10;NzksMzIuNjUtMS43MSw1Ni42LjU0LDgwLjIxaDBBMTA1LjczLDEwNS43MywwLDAsMCwzMi43MSw5&#10;Ni4zNiw3Ny43LDc3LjcsMCwwLDAsMzkuNiw4NS4yNWE2OC40Miw2OC40MiwwLDAsMS0xMC44NS01&#10;LjE4Yy45MS0uNjYsMS44LTEuMzQsMi42Ni0yYTc1LjU3LDc1LjU3LDAsMCwwLDY0LjMyLDBjLjg3&#10;LjcxLDEuNzYsMS4zOSwyLjY2LDJhNjguNjgsNjguNjgsMCwwLDEtMTAuODcsNS4xOSw3Nyw3Nyww&#10;LDAsMCw2Ljg5LDExLjFBMTA1LjI1LDEwNS4yNSwwLDAsMCwxMjYuNiw4MC4yMmgwQzEyOS4yNCw1&#10;Mi44NCwxMjIuMDksMjkuMTEsMTA3LjcsOC4wN1pNNDIuNDUsNjUuNjlDMzYuMTgsNjUuNjksMzEs&#10;NjAsMzEsNTNzNS0xMi43NCwxMS40My0xMi43NFM1NCw0Niw1My44OSw1Myw0OC44NCw2NS42OSw0&#10;Mi40NSw2NS42OVptNDIuMjQsMEM3OC40MSw2NS42OSw3My4yNSw2MCw3My4yNSw1M3M1LTEyLjc0&#10;LDExLjQ0LTEyLjc0Uzk2LjIzLDQ2LDk2LjEyLDUzLDkxLjA4LDY1LjY5LDg0LjY5LDY1LjY5WiIv&#10;PjwvZz48L2c+PC9nPjwvc3ZnPg==&#10;"
       id="image1-5"
       x="34.669651"
       y="157.18446" /><image
       width="69.849998"
       height="69.849998"
       preserveAspectRatio="none"
       style="image-rendering:optimizeQuality"
       xlink:href="data:image/png;base64,iVBORw0KGgoAAAANSUhEUgAAAQgAAAEICAYAAACj9mr/AAALlElEQVR4Ae3gAZAkSZIkSRKLqpm7&#10;R0REZmZmVlVVVVV3d3d3d/fMzMzMzMzMzMzMzMzMzMzMzMzMzMzMzMzMzMzMzMzMzMzMzMzMzMzM&#10;zMzMzMzMzMzMzMzMzMzMzMzMzMzMzMzMzMzMzMzMzMzMzMzMzMzMzMzMzMzMdHd3d3dXV1VVVVVm&#10;ZkZGRIS7m5kKz0xmV3d1d3dPz8zMzMxMYrVtrrrqqqueF5WrrrrqquePylVXXXXV80flqquuuur5&#10;o3LVVVdd9fxRueqqq656/qhcddVVVz1/VK666qqrnj8qV1111VXPH5WrrrrqquePylVXXXXV80fl&#10;qquuuur5o3LVVVdd9fxRueqqq656/qhcddVVVz1/VK666qqrnj8qV1111VXPH5WrrrrqquePylVX&#10;XXXV80flqquuuur5o3LVVVdd9fxRueqqq656/qhcddVVVz1/VK666qqrnj8qV1111VXPH5Wrrrrq&#10;quePylVXXXXV80flqquuuur5o3LVVVdd9fxRueqqq656/qhcddVVVz1/VK666qqrnj8q/80k8X+Z&#10;bV4YSbwwtvn3kMT/ZrZ5YSTxf5lt/htRueqqq656/qhcddVVVz1/VK666qqrnj8qV1111VXPH5Wr&#10;rrrqquePylVXXXXV80flqquuuur5o/I/nG3+J5PEv4dtXhhJ/HeyzX8mSfxnss3/ZJL4H4zKVVdd&#10;ddXzR+Wqq6666vmjctVVV131/FG56qqrrnr+qFx11VVXPX9UrrrqqquePypXXXXVVc8flf/lJPGf&#10;yTb/m9nmhZHEv4ckXhjbvDC2+e8kif9MtvlfjMpVV1111fNH5aqrrrrq+aNy1VVXXfX8Ubnqqquu&#10;ev6oXHXVVVc9f1Suuuqqq54/KlddddVVzx+Vq/5bSeKFsc1/Jtu8MJJ4YWzzwkji38M2V/23oXLV&#10;VVdd9fxRueqqq656/qhcddVVVz1/VK666qqrnj8qV1111VXPH5WrrrrqquePylVXXXXV80flqv/R&#10;JPHvYZsXRhIvjG1eGElc9X8Wlauuuuqq54/KVVddddXzR+Wqq6666vmjctVVV131/FG56qqrrnr+&#10;qFx11VVXPX9UrrrqqquePyr/y9nm/zPbvDCSeGFs8+9hm//NbHPVC0Tlqquuuur5o3LVVVdd9fxR&#10;ueqqq656/qhcddVVVz1/VK666qqrnj8qV1111VXPH5WrrrrqquePyv9wkvj/zDYvjCReGNu8MJJ4&#10;YWzzwkjihbHNCyOJF8Y2/x6SuOrfjMpVV1111fNH5aqrrrrq+aNy1VVXXfX8Ubnqqquuev6oXHXV&#10;VVc9f1Suuuqqq54/KlddddVVzx+V/2a2ueoFk8QLY5sXRhIvjG3+O9nm38M2V/2noXLVVVdd9fxR&#10;ueqqq656/qhcddVVVz1/VK666qqrnj8qV1111VXPH5WrrrrqquePylVXXXXV80flv5kkXhjb/GeS&#10;xAtjmxdGEv+ZbPPfSRIvjG1eGEm8MLZ5YSTxP5lt/j0k8cLY5r8Rlauuuuqq54/KVVddddXzR+Wq&#10;q6666vmjctVVV131/FG56qqrrnr+qFx11VVXPX9UrrrqqquePyr/zWzzwkjihbHNfyZJvDC2eWEk&#10;8Z9JEi+MbV4YSfxPZpv/TJL4zySJF8Y2/4NRueqqq656/qhcddVVVz1/VK666qqrnj8qV1111VXP&#10;H5WrrrrqquePylVXXXXV80flqquuuur5o/LfTBL/k9nmhZHEfyZJ/HeyzQsjiX8PSfxnss0LY5sX&#10;RhIvjCReGNv8L0blqquuuur5o3LVVVdd9fxRueqqq656/qhcddVVVz1/VK666qqrnj8qV1111VXP&#10;H5WrrrrqquePyn8z2/xnksS/hyReGNv8e0jihbHNCyOJ/81s859JEi+MbV4Y27wwknhhJPHC2OZ/&#10;MCpXXXXVVc8flauuuuqq54/KVVddddXzR+Wqq6666vmjctVVV131/FG56qqrrnr+qFx11VVXPX/I&#10;tvlvJIkXxjYvjCT+PWzzwkji38M2L4wk/j1s88JI4j+Tbf4zSeI/k21eGEn8d7LNfyMqV1111VXP&#10;H5WrrrrqquePylVXXXXV80flqquuuur5o3LVVVdd9fxRueqqq656/qhcddVVVz1/yLb5bySJ/8ls&#10;8+8hiX8P2/xnksT/Zrb595DEC2Obfw9JvDC2+R+MylVXXXXV80flqquuuur5o3LVVVdd9fxRueqq&#10;q656/qhcddVVVz1/VK666qqrnj8qV1111VXPH7Jt/heTxAtjmxdGEv+dbPPCSOKFsc0LI4kXxjYv&#10;jCReGNu8MJL4z2SbF0YS/51s878Ylauuuuqq54/KVVddddXzR+Wqq6666vmjctVVV131/FG56qqr&#10;rnr+qFx11VVXPX9UrrrqqquePyr/x0ni38M2/x6S+M8kiRfGNi+MJF4Y2/x72OaFkcQLY5sXRhL/&#10;mWzzwkjihZHEC2Ob/8GoXHXVVVc9f1Suuuqqq54/KlddddVVzx+Vq6666qrnj8pVV1111fNH5aqr&#10;rrrq+aNy1VVXXfX8UflvJol/D9v8Z5LE/2S2eWEk8b+ZJP47SeLfwzb/i1G56qqrrnr+qFx11VVX&#10;PX9UrrrqqquePypXXXXVVc8flauuuuqq54/KVVddddXzR+Wqq6666vlDts1V/20k8cLY5r+TJP47&#10;2eY/kyReGNv8P0blqquuuur5o3LVVVdd9fxRueqqq656/qhcddVVVz1/VK666qqrnj8qV1111VXP&#10;H5WrrrrqquePyn8zSfxfZpv/TJL4z2Sb/0yS+PeQxAtjm6v+zahcddVVVz1/VK666qqrnj8qV111&#10;1VXPH5WrrrrqquePylVXXXXV80flqquuuur5o3LVVVdd9fxR+R/ONv+TSeLfwzb/nWzz7yGJF8Y2&#10;/5ls859JEv+dbPPfiMpVV1111fNH5aqrrrrq+aNy1VVXXfX8Ubnqqquuev6oXHXVVVc9f1Suuuqq&#10;q54/KlddddVVzx+V/+Uk8Z/JNv+ZJPHC2ObfwzYvjCReGNu8MLb5zySJ/81s878Ylauuuuqq54/K&#10;VVddddXzR+Wqq6666vmjctVVV131/FG56qqrrnr+qFx11VVXPX9UrrrqqquePypX/beyzQsjiRfG&#10;Ni+MJF4Y27wwkvi/zDb/HpJ4YSTx72Gb/0ZUrrrqqquePypXXXXVVc8flauuuuqq54/KVVddddXz&#10;R+Wqq6666vmjctVVV131/FG56qqrrnr+qFz1P5ptXhhJ/HtI4oWxzX8nSfx72ObfQxIvjG1eGEm8&#10;MLb5H4zKVVddddXzR+Wqq6666vmjctVVV131/FG56qqrrnr+qFx11VVXPX9UrrrqqquePypXXXXV&#10;Vc8flf/lbPN/mST+J5PEv4dt/j1s88JI4j+TJP4Po3LVVVdd9fxRueqqq656/qhcddVVVz1/VK66&#10;6qqrnj8qV1111VXPH5WrrrrqquePylVXXXXV80flfzhJ/F8miRfGNi+MJF4Y2/xnss0LI4n/Trb5&#10;zySJfw9JvDC2+W9E5aqrrrrq+aNy1VVXXfX8Ubnqqquuev6oXHXVVVc9f1Suuuqqq54/KlddddVV&#10;zx+Vq6666qrnD9k2V1111VXPi8pVV1111fNH5aqrrrrq+aNy1VVXXfX8Ubnqqquuev6oXHXVVVc9&#10;f1Suuuqqq54/KlddddVVzx+Vq6666qrnj8pVV1111fNH5aqrrrrq+aNy1VVXXfX8Ubnqqquuev6o&#10;XHXVVVc9f1Suuuqqq54/KlddddVVzx+Vq6666qrnj8pVV1111fNH5aqrrrrq+aNy1VVXXfX8Ubnq&#10;qquuev6oXHXVVVc9f1Suuuqqq54/KlddddVVzx+Vq6666qrnj8pVV1111fNH5aqrrrrq+aNy1VVX&#10;XfX8Ubnqqquuev6oXHXVVVc9f1Suuuqqq54/KlddddVVzx//CM74kAAbBroOAAAAAElFTkSuQmCC&#10;&#10;"
       id="image1-8"
       x="15.294065"
       y="200.12987" /><text
       xml:space="preserve"
       style="font-size:16.9333px;line-height:0;font-family:'Pixelify Sans';-inkscape-font-specification:'Pixelify Sans';fill:#0000ff;stroke:none;stroke-width:9.22499;stroke-linecap:square;stroke-dasharray:none;stroke-opacity:0.995772;paint-order:stroke fill markers"
       x="19.695938"
       y="203.30353"
       id="text6"><tspan
         sodipodi:role="line"
         id="tspan6"
         style="font-size:16.9333px;fill:#0000ff;stroke-width:9.225"
         x="19.695938"
         y="203.30353">Discord</tspan></text><image
       preserveAspectRatio="none"
       inkscape:svg-dpi="96"
       width="25.969799"
       height="27.354855"
       style="image-rendering:optimizeQuality;fill:#7f2aff"
       xlink:href="data:image/svg+xml;base64,PHN2ZyB3aWR0aD0iNzUiIGhlaWdodD0iNzkiIHZpZXdCb3g9IjAgMCA3NSA3OSIgZmlsbD0ibm9u&#10;ZSIgeG1sbnM9Imh0dHA6Ly93d3cudzMub3JnLzIwMDAvc3ZnIj4KPHBhdGggZD0iTTczLjgzOTMg&#10;MTcuNDg5OEM3Mi42OTczIDkuMDAxNjUgNjUuMjk5NCAyLjMxMjM1IDU2LjUyOTYgMS4wMTYxNEM1&#10;NS4wNSAwLjc5NzExNSA0OS40NDQxIDAgMzYuNDU4MiAwSDM2LjM2MTJDMjMuMzcxNyAwIDIwLjU4&#10;NSAwLjc5NzExNSAxOS4xMDU0IDEuMDE2MTRDMTAuNTc5OCAyLjI3NjQ0IDIuNzkzOTkgOC4yODcx&#10;MiAwLjkwNDk5NyAxNi44NzU4Qy0wLjAwMzU4NTI0IDIxLjEwNTYgLTAuMTAwNTQ5IDI1Ljc5NDkg&#10;MC4wNjgyMzk0IDMwLjA5NjVDMC4zMDg4NTIgMzYuMjY1MSAwLjM1NTUzOCA0Mi40MjMgMC45MTU3&#10;NyA0OC41NjY1QzEuMzAzMDcgNTIuNjQ3NCAxLjk3ODcyIDU2LjY5NTcgMi45Mzc2MyA2MC42ODEy&#10;QzQuNzMzMjUgNjguMDQyIDEyLjAwMTkgNzQuMTY3NiAxOS4xMjMzIDc2LjY2NjZDMjYuNzQ3OCA3&#10;OS4yNzI4IDM0Ljk0NzQgNzkuNzA1NSA0Mi44MDM5IDc3LjkxNjJDNDMuNjY4MiA3Ny43MTUxIDQ0&#10;LjUyMTcgNzcuNDgxNyA0NS4zNjQ1IDc3LjIxNkM0Ny4yNzUgNzYuNjA5MiA0OS41MTIzIDc1Ljkz&#10;MDUgNTEuMTU3MSA3NC43Mzg1QzUxLjE3OTcgNzQuNzIxNyA1MS4xOTgyIDc0LjcwMDEgNTEuMjEx&#10;MiA3NC42NzUzQzUxLjIyNDMgNzQuNjUwNCA1MS4yMzE2IDc0LjYyMjkgNTEuMjMyNSA3NC41OTQ4&#10;VjY4LjY0MTZDNTEuMjMyMSA2OC42MTU0IDUxLjIyNTkgNjguNTg5NiA1MS4yMTQyIDY4LjU2NjFD&#10;NTEuMjAyNSA2OC41NDI2IDUxLjE4NTggNjguNTIyIDUxLjE2NTEgNjguNTA1OEM1MS4xNDQ0IDY4&#10;LjQ4OTYgNTEuMTIwNCA2OC40NzgzIDUxLjA5NDggNjguNDcyNkM1MS4wNjkyIDY4LjQ2NjkgNTEu&#10;MDQyNiA2OC40NjcgNTEuMDE3MSA2OC40NzI5QzQ1Ljk4MzUgNjkuNjc1IDQwLjgyNTQgNzAuMjc3&#10;NyAzNS42NTAyIDcwLjI2ODJDMjYuNzQzOSA3MC4yNjgyIDI0LjM0ODYgNjYuMDQyIDIzLjY2MjYg&#10;NjQuMjgyNkMyMy4xMTEzIDYyLjc2MiAyMi43NjEyIDYxLjE3NTkgMjIuNjIxMiA1OS41NjQ2QzIy&#10;LjYxOTcgNTkuNTM3NSAyMi42MjQ3IDU5LjUxMDUgMjIuNjM1NyA1OS40ODU3QzIyLjY0NjYgNTku&#10;NDYwOSAyMi42NjMzIDU5LjQzOTEgMjIuNjg0MyA1OS40MjJDMjIuNzA1MyA1OS40MDQ4IDIyLjcz&#10;IDU5LjM5MjkgMjIuNzU2NSA1OS4zODcxQzIyLjc4MyA1OS4zODEzIDIyLjgxMDQgNTkuMzgxOCAy&#10;Mi44MzY3IDU5LjM4ODZDMjcuNzg2NCA2MC41ODI2IDMyLjg2MDQgNjEuMTg1MyAzNy45NTIyIDYx&#10;LjE4MzlDMzkuMTc2OCA2MS4xODM5IDQwLjM5NzggNjEuMTgzOSA0MS42MjI0IDYxLjE1MTZDNDYu&#10;NzQzNSA2MS4wMDggNTIuMTQxMSA2MC43NDU5IDU3LjE3OTYgNTkuNzYyMUM1Ny4zMDUzIDU5Ljcz&#10;NjkgNTcuNDMxIDU5LjcxNTQgNTcuNTM4NyA1OS42ODMxQzY1LjQ4NjEgNTguMTU3IDczLjA0OTMg&#10;NTMuMzY3MiA3My44MTc4IDQxLjIzODFDNzMuODQ2NSA0MC43NjA2IDczLjkxODQgMzYuMjM2NCA3&#10;My45MTg0IDM1Ljc0MDlDNzMuOTIxOSAzNC4wNTY5IDc0LjQ2MDYgMjMuNzk0OSA3My44MzkzIDE3&#10;LjQ4OThaIiBmaWxsPSJ1cmwoI3BhaW50MF9saW5lYXJfNTQ5XzM0KSIvPgo8cGF0aCBkPSJNNjEu&#10;MjQ4NCAyNy4wMjYzVjQ4LjExNEg1Mi44OTE2VjI3LjY0NzVDNTIuODkxNiAyMy4zMzg4IDUxLjA5&#10;NiAyMS4xNDEzIDQ3LjQ0MzcgMjEuMTQxM0M0My40Mjg3IDIxLjE0MTMgNDEuNDE3NyAyMy43NDA5&#10;IDQxLjQxNzcgMjguODc1NVY0MC4wNzgySDMzLjExMTFWMjguODc1NUMzMy4xMTExIDIzLjc0MDkg&#10;MzEuMDk2NSAyMS4xNDEzIDI3LjA4MTUgMjEuMTQxM0MyMy40NTA3IDIxLjE0MTMgMjEuNjM3MSAy&#10;My4zMzg4IDIxLjYzNzEgMjcuNjQ3NVY0OC4xMTRIMTMuMjgzOVYyNy4wMjYzQzEzLjI4MzkgMjIu&#10;NzE3NiAxNC4zODQgMTkuMjk0NiAxNi41ODQzIDE2Ljc1NzJDMTguODUzOSAxNC4yMjU4IDIxLjgz&#10;MTEgMTIuOTI2IDI1LjUyNjQgMTIuOTI2QzI5LjgwMzYgMTIuOTI2IDMzLjAzNTcgMTQuNTcwNSAz&#10;NS4xOTA1IDE3Ljg1NTlMMzcuMjY5OCAyMS4zNDZMMzkuMzUyNyAxNy44NTU5QzQxLjUwNzQgMTQu&#10;NTcwNSA0NC43Mzk1IDEyLjkyNiA0OS4wMDk1IDEyLjkyNkM1Mi43MDEzIDEyLjkyNiA1NS42Nzg0&#10;IDE0LjIyNTggNTcuOTU1MyAxNi43NTcyQzYwLjE1MzEgMTkuMjkyMiA2MS4yNTA4IDIyLjcxNTIg&#10;NjEuMjQ4NCAyNy4wMjYzWiIgZmlsbD0id2hpdGUiLz4KPGRlZnM+CjxsaW5lYXJHcmFkaWVudCBp&#10;ZD0icGFpbnQwX2xpbmVhcl81NDlfMzQiIHgxPSIzNy4wNjkyIiB5MT0iMCIgeDI9IjM3LjA2OTIi&#10;IHkyPSI3OSIgZ3JhZGllbnRVbml0cz0idXNlclNwYWNlT25Vc2UiPgo8c3RvcCBzdG9wLWNvbG9y&#10;PSIjNjM2NEZGIi8+CjxzdG9wIG9mZnNldD0iMSIgc3RvcC1jb2xvcj0iIzU2M0FDQyIvPgo8L2xp&#10;bmVhckdyYWRpZW50Pgo8L2RlZnM+Cjwvc3ZnPgo=&#10;"
       id="image1-7"
       x="124.71571"
       y="157.24571" /><image
       width="68.527084"
       height="68.527084"
       preserveAspectRatio="none"
       style="image-rendering:optimizeQuality"
       xlink:href="data:image/png;base64,iVBORw0KGgoAAAANSUhEUgAAAQMAAAEDCAYAAAAx0WHLAAANAklEQVR4Ae3gAZAkSZIkSRKLqpm7&#10;R0REZmZmVlVVVVV3d3d3d/fMzMzMzMzMzMzMzMzMzMzMzMzMzMzMzMzMzMzMzMzMzMzMzMzMzMzM&#10;zMzMzMzMzMzMzMzMzMzMzMzMzMzMzMzMzMzMzMzMzMzMzMzMzMzMzMzMzMzMdHd3d3dXV1VVVVVm&#10;ZkZGRIS7m5kKz0xmV3d1d3dPz8zMzMxMYrVtrrrqqv/PAKhcddVV/98BULnqqqv+vwOgctVVV/1/&#10;B0Dlqquu+v8OgMpVV131/x0Alauuuur/OwAqV1111f93AFSuuuqq/+8AqFx11VX/3wFQueqqq/6/&#10;A6By1VVX/X8HQOWqq676/w6AylVXXfX/HQCVq6666v87ACpXXXXV/3cAVK666qr/7wCoXHXVVf/f&#10;AVC56qqr/r8DoHLVVVf9fwdA5aqrrvr/DoDKVVdd9f8dAJWrrrrq/zsAKlddddX/dwBUrrrqqv/v&#10;AKhcddVV/98BULnqqqv+vwOgctVVV/1/B0Dlv5gk/rezzX8lSfxPYZt/C0m8ILb5jyaJ/+1s818E&#10;gMpVV131/x0Alauuuur/OwAqV1111f93AFSuuuqq/+8AqFx11VX/3wFQueqqq/6/A6DyP4ht/qeQ&#10;xL+FJF4Q2/xb2OYFkcQLYpt/C0n8R7PNv4UkXhDb/FvY5n8KSfwPAEDlqquu+v8OgMpVV131/x0A&#10;lauuuur/OwAqV1111f93AFSuuuqq/+8AqFx11VX/3wFQ+V9CEv/RbPP/lSReENu8IJJ4QWzzgkji&#10;BbHNC2Kb/0qS+I9mm//hAKhcddVV/98BULnqqqv+vwOgctVVV/1/B0Dlqquu+v8OgMpVV131/x0A&#10;lauuuur/OwAqV/2vZpv/aJJ4QWzzgkjiP5okXhDbXPUfAoDKVVdd9f8dAJWrrrrq/zsAKlddddX/&#10;dwBUrrrqqv/vAKhcddVV/98BULnqqqv+vwOgctV/KNu8IJK46nlJ4qr/VgBUrrrqqv/vAKhcddVV&#10;/98BULnqqqv+vwOgctVVV/1/B0Dlqquu+v8OgMpVV131/x0Alf8lbPO/nW3+LSTxX8k2L4gk/i1s&#10;828hif9Ktvl/CIDKVVdd9f8dAJWrrrrq/zsAKlddddX/dwBUrrrqqv/vAKhcddVV/98BULnqqqv+&#10;vwOg8j+IJP63k8QLYpsXRBIviG1eEEm8ILZ5QSTxH802L4gkXhDb/FeSxFXPAYDKVVdd9f8dAJWr&#10;rrrq/zsAKlddddX/dwBUrrrqqv/vAKhcddVV/98BULnqqqv+vwNAts1V/2Ek8W9hm38LSfxb2Oaq&#10;q54JgMpVV131/x0Alauuuur/OwAqV1111f93AFSuuuqq/+8AqFx11VX/3wFQueqqq/6/A6DyX0wS&#10;L4ht/qeQxAtim38L27wgknhBbPNvYZsXRBL/Frb5jyaJF8Q2L4gk/i1s828hif9otvkfAIDKVVdd&#10;9f8dAJWrrrrq/zsAKlddddX/dwBUrrrqqv/vAKhcddVV/98BULnqqqv+vwOg8l/MNv8Wkvi3sM0L&#10;IokXxDYviCT+o9nm38I2/9Fs8x9NEv/RbPNvIYl/C9u8IJL4XwyAylVXXfX/HQCVq6666v87ACpX&#10;XXXV/3cAVK666qr/7wCoXHXVVf/fAVC56qqr/r8DoPI/iCReENv8R7PNCyKJfwvb/FtI4gWxzQsi&#10;iRfENi+Ibf6nsM0LIokXxDYviCReENu8IJL4t7DN/2IAVK666qr/7wCoXHXVVf/fAVC56qqr/r8D&#10;oHLVVVf9fwdA5aqrrvr/DoDKVVdd9f8dAJX/YpJ4QWzzgkji38I2/xa2+b9MEv/RbPNvIYkXxDYv&#10;iCT+LSTxbyGJF8Q2/4sBULnqqqv+vwOgctVVV/1/B0Dlqquu+v8OgMpVV131/x0Alauuuur/OwAq&#10;V1111f93AMi2+R9CEi+IbV4QSbwgtnlBJPFvYZt/C0m8ILb5jyaJfwvbvCCSeEFs828hiX8L27wg&#10;knhBbPM/hSReENv8FwGgctVVV/1/B0Dlqquu+v8OgMpVV131/x0Alauuuur/OwAqV1111f93AFSu&#10;uuqq/+8AqPwXk8QLYpsXRBIviG3+o9nmBZHEv4Vt/qNJ4r+Sbf63k8S/hW3+LSTxPxwAlauuuur/&#10;OwAqV1111f93AFSuuuqq/+8AqFx11VX/3wFQueqqq/6/A6By1VVX/X8HgGyb/+Uk8V/JNv8Wkvjf&#10;zjYviCReENv8W0jiBbHNv4UkXhDbvCCS+Lewzf9wAFSuuuqq/+8AqFx11VX/3wFQueqqq/6/A6By&#10;1VVX/X8HQOWqq676/w6AylVXXfX/HQCV/2KSeEFs84JI4gWxzQsiiX8L2/xXss0LIokXxDYviCT+&#10;K9nm30ISL4ht/i0k8YLY5gWRxAtimxdEEv8WknhBbPNfBIDKVVdd9f8dAJWrrrrq/zsAKlddddX/&#10;dwBUrrrqqv/vAKhcddVV/98BULnqqqv+vwOg8n+AJF4Q2/xbSOLfwjYviG1eEEm8ILZ5QSTxgtjm&#10;BZHEC2KbfwtJvCC2+a9kmxdEEi+IbV4QSfxHs83/AABUrrrqqv/vAKhcddVV/98BULnqqqv+vwOg&#10;ctVVV/1/B0Dlqquu+v8OgMpVV131/x0Asm3+C0niBbHNv4Uk/qPZ5gWRxAtimxdEEv+VbPNvIYn/&#10;DWzzgkjiP5ptXhBJ/EezzX8RACpXXXXV/3cAVK666qr/7wCoXHXVVf/fAVC56qqr/r8DoHLVVVf9&#10;fwdA5aqrrvr/DgDZNv+FJPFvYZt/C0n8V7LNv4UkXhDbvCCS+K9kmxdEEi+IbV4QSbwgtvmvJIl/&#10;C9v8W0jiBbHNfxEAKlddddX/dwBUrrrqqv/vAKhcddVV/98BULnqqqv+vwOgctVVV/1/B0Dlqquu&#10;+v8OgMr/ILZ5QSTxgtjm38I2/xaS+LeQxAtim38L2/xbSOIFsc2/hW1eEEn8R5PEv4Vt/i1s8x/N&#10;Nv8DAFC56qqr/r8DoHLVVVf9fwdA5aqrrvr/DoDKVVdd9f8dAJWrrrrq/zsAKlddddX/dwBU/pew&#10;zQsiif9oknhBbPMfTRL/Frb5t7DNfzRJvCC2+beQxH80SfxHk8R/NNv8FwGgctVVV/1/B0Dlqquu&#10;+v8OgMpVV131/x0Alauuuur/OwAqV1111f93AFSuuuqq/+8AkG1z1X8YSfxvYJsXRBIviG1eEEn8&#10;V7LNfzRJ/FvY5n8xACpXXXXV/3cAVK666qr/7wCoXHXVVf/fAVC56qqr/r8DoHLVVVf9fwdA5aqr&#10;rvr/DgDZNv+FJPG/nW3+LSTxgtjmP5ok/qewzQsiiX8L27wgknhBbPOCSOI/mm3+hwOgctVVV/1/&#10;B0Dlqquu+v8OgMpVV131/x0Alauuuur/OwAqV1111f93AFSuuuqq/+8AqPwPYpv/KSTxP4Uk/qPZ&#10;5gWRxL+Fbf6nsM1/NNv8W0jiBbHN/wAAVK666qr/7wCoXHXVVf/fAVC56qqr/r8DoHLVVVf9fwdA&#10;5aqrrvr/DoDKVVdd9f8dAJX/JSTxH802/xvY5gWRxP9XkvivJIkXxDb/FpJ4QWzzXwSAylVXXfX/&#10;HQCVq6666v87ACpXXXXV/3cAVK666qr/7wCoXHXVVf/fAVC56qqr/r8DoHLV/2q2+d/ONi+IJP4t&#10;bPMfTRIviCReENu8IJL4HwCAylVXXfX/HQCVq6666v87ACpXXXXV/3cAVK666qr/7wCoXHXVVf/f&#10;AVC56qqr/r8DoHLV/3iSeEFs828hif9okvifQhL/U0jiBbHN/wAAVK666qr/7wCoXHXVVf/fAVC5&#10;6qqr/r8DoHLVVVf9fwdA5aqrrvr/DoDKVVdd9f8dAJX/JWzzv51t/qNJ4t/CNv8WknhBbPOCSOIF&#10;sc2/hSReENu8IJL4r2SbF0QSL4ht/osAULnqqqv+vwOgctVVV/1/B0Dlqquu+v8OgMpVV131/x0A&#10;lauuuur/OwAqV1111f93AFT+B5HE/3aSeEFs84JI4t/CNv8WknhBbPOC2OYFkcQLYpv/SpL4t7DN&#10;v4Uk/i1s8z8AAJWrrrrq/zsAKlddddX/dwBUrrrqqv/vAKhcddVV/98BULnqqqv+vwOgctVVV/1/&#10;B4Bsm6uuuur/MwAqV1111f93AFSuuuqq/+8AqFx11VX/3wFQueqqq/6/A6By1VVX/X8HQOWqq676&#10;/w6AylVXXfX/HQCVq6666v87ACpXXXXV/3cAVK666qr/7wCoXHXVVf/fAVC56qqr/r8DoHLVVVf9&#10;fwdA5aqrrvr/DoDKVVdd9f8dAJWrrrrq/zsAKlddddX/dwBUrrrqqv/vAKhcddVV/98BULnqqqv+&#10;vwOgctVVV/1/B0Dlqquu+v8OgMpVV131/x0Alauuuur/OwAqV1111f93AFSuuuqq/+8AqFx11VX/&#10;3wHwj+DxQMvUwP2lAAAAAElFTkSuQmCC&#10;"
       id="image1-0"
       x="102.0491"
       y="201.32716" /><text
       xml:space="preserve"
       style="font-size:16.9333px;line-height:0;font-family:'Pixelify Sans';-inkscape-font-specification:'Pixelify Sans';fill:#7f2aff;stroke:none;stroke-width:9.22499;stroke-linecap:square;stroke-dasharray:none;stroke-opacity:0.995772;paint-order:stroke fill markers"
       x="97.378098"
       y="203.42361"
       id="text7"><tspan
         sodipodi:role="line"
         id="tspan7"
         style="stroke-width:9.225"
         x="97.378098"
         y="203.42361">Mastodon</tspan></text><image
       width="69.849998"
       height="69.849998"
       preserveAspectRatio="none"
       style="image-rendering:optimizeQuality"
       xlink:href="data:image/png;base64,iVBORw0KGgoAAAANSUhEUgAAAQgAAAEICAYAAACj9mr/AAALf0lEQVR4Ae3gAZAkSZIkSRKLqpm7&#10;R0REZmZmVlVVVVV3d3d3d/fMzMzMzMzMzMzMzMzMzMzMzMzMzMzMzMzMzMzMzMzMzMzMzMzMzMzM&#10;zMzMzMzMzMzMzMzMzMzMzMzMzMzMzMzMzMzMzMzMzMzMzMzMzMzMzMzMzMzMdHd3d3dXV1VVVVVm&#10;ZkZGRIS7m5kKz0xmV3d1d3dPz8zMzMxMYrVtrrrqqqueF5WrrrrqquePylVXXXXV80flqquuuur5&#10;o3LVVVdd9fxRueqqq656/qhcddVVVz1/VK666qqrnj8qV1111VXPH5WrrrrqquePylVXXXXV80fl&#10;qquuuur5o3LVVVdd9fxRueqqq656/qhcddVVVz1/VK666qqrnj8qV1111VXPH5WrrrrqquePylVX&#10;XXXV80flqquuuur5o3LVVVdd9fxRueqqq656/qhcddVVVz1/VK666qqrnj8qV1111VXPH5Wrrrrq&#10;quePylVXXXXV80flqquuuur5o3LVVVdd9fxRueqqq656/qhcddVVVz1/VK666qqrnj8q/80k8X+Z&#10;bV4YSbwwtvn3kMS/h23+PSTx72GbF0YS/5fZ5r8Rlauuuuqq54/KVVddddXzR+Wqq6666vmjctVV&#10;V131/FG56qqrrnr+qFx11VVXPX9UrrrqqquePyr/w9nmfzJJ/HvY5r+TbV4YSfx72OaFkcR/Jtv8&#10;TyaJ/8GoXHXVVVc9f1Suuuqqq54/KlddddVVzx+Vq6666qrnj8pVV1111fNH5aqrrrrq+aNy1VVX&#10;XfX8UflfThL/mWzzn0kSL4xt/jNJ4oWxzQsjiRdGEv+TSeI/k23+F6Ny1VVXXfX8Ubnqqquuev6o&#10;XHXVVVc9f1Suuuqqq54/KlddddVVzx+Vq6666qrnj8pVV1111fNH5ar/VrZ5YSTxv5ltrvpfi8pV&#10;V1111fNH5aqrrrrq+aNy1VVXXfX8Ubnqqquuev6oXHXVVVc9f1Suuuqqq54/KlddddVVzx+Vq/5H&#10;s80LI4n/TJL495DEC2Obq/7HonLVVVdd9fxRueqqq656/qhcddVVVz1/VK666qqrnj8qV1111VXP&#10;H5WrrrrqquePylVXXXXV80flfznb/G8miRfGNv+dbPPvIYn/yWxz1QtE5aqrrrrq+aNy1VVXXfX8&#10;Ubnqqquuev6oXHXVVVc9f1Suuuqqq54/KlddddVVzx+Vq6666qrnj8r/cJK46t/ONi+MJP49JPHC&#10;2OaFkcQLY5t/D0lc9W9G5aqrrrrq+aNy1VVXXfX8Ubnqqquuev6oXHXVVVc9f1Suuuqqq54/Kldd&#10;ddVVzx+Vq6666qrnj8p/M9v8f2ab/8sk8Z/JNlf9p6Fy1VVXXfX8Ubnqqquuev6oXHXVVVc9f1Su&#10;uuqqq54/KlddddVVzx+Vq6666qrnj8pVV1111fNH5b+ZJF4Y27wwknhhbPOfSRL/HrZ5YSTxwtjm&#10;hZHEC2ObF0YS/x62eWEk8Z9JEi+Mbf49JPHC2OaFkcQLY5v/RlSuuuqqq54/KlddddVVzx+Vq666&#10;6qrnj8pVV1111fNH5aqrrrrq+aNy1VVXXfX8Ubnqqquuev6o/DezzQsjiRfGNi+MJP49bPPC2OaF&#10;kcR/J9u8MJL472Sbfw9J/GeSxP9jVK666qqrnj8qV1111VXPH5WrrrrqquePylVXXXXV80flqquu&#10;uur5o3LVVVdd9fxRueqqq656/qj8D2ebF0YS/x62eWEk8e9hm/9Okvj3sM2/hyReGNu8MJJ4YWzz&#10;wkjiqn8zKlddddVVzx+Vq6666qrnj8pVV1111fNH5aqrrrrq+aNy1VVXXfX8Ubnqqquuev6oXHXV&#10;VVc9f1T+m0nifzLb/GeSxL+HJP49bPPCSOKFsc2/hyT+M9nmP5NtXhhJ/C9G5aqrrrrq+aNy1VVX&#10;XfX8Ubnqqquuev6oXHXVVVc9f1Suuuqqq54/KlddddVVzx+Vq6666qrnj8pVL5Qk/jezzQsjif/J&#10;bPPCSOKFsc1/J9u8MJL4H4zKVVddddXzR+Wqq6666vmjctVVV131/FG56qqrrnr+qFx11VVXPX9U&#10;rrrqqquePypXXXXVVc8flf9mtnlhJPHC2OaFkcQLI4kXxjb/mSTxP5lt/jtJ4t9DEi+Mbf49JPF/&#10;GJWrrrrqquePylVXXXXV80flqquuuur5o3LVVVdd9fxRueqqq656/qhcddVVVz1/VK666qqrnj8q&#10;/80k8e8hiX8P2/x7SOKFsc1/Jtv8Z5LE/2S2eWEk8cJI4oWxzX8mSfwPRuWqq6666vmjctVVV131&#10;/FG56qqrrnr+qFx11VVXPX9UrrrqqquePypXXXXVVc8flauuuuqq54/KfzPb/E8miRfGNi+MJP49&#10;bPPvIYl/D9u8MJL497DNfyfb/GeSxP9iVK666qqrnj8qV1111VXPH5WrrrrqquePylVXXXXV80fl&#10;qquuuur5o3LVVVdd9fxRueqqq656/qj8N5PEv4dt/j0k8e8hif9OknhhbPPvIYn/TJL47ySJF8Y2&#10;/49Rueqqq656/qhcddVVVz1/VK666qqrnj8qV1111VXPH5WrrrrqquePylVXXXXV80flqquuuur5&#10;o/LfzDb/nWzz30kSL4wkXhjb/F9mm/9Mkvj3kMQLY5sXRhL/g1G56qqrrnr+qFx11VVXPX9Urrrq&#10;qquePypXXXXVVc8flauuuuqq54/KVVddddXzR+Wqq6666vmj8t9MEv+X2ea/kyReGNu8MLb5zySJ&#10;fw9JvDC2+feQxAtjmxdGEv+LUbnqqquuev6oXHXVVVc9f1Suuuqqq54/KlddddVVzx+Vq6666qrn&#10;j8pVV1111fNH5aqrrrrq+aPyP5xt/ieTxL+HbV4YSfx72ObfQxIvjG1eGEn8Z7LNVf9pqFx11VVX&#10;PX9UrrrqqquePypXXXXVVc8flauuuuqq54/KVVddddXzR+Wqq6666vmjctVVV131/FH5X04S/5ls&#10;89/JNi+MJP4vk8T/Zrb5X4zKVVddddXzR+Wqq6666vmjctVVV131/FG56qqrrnr+qFx11VVXPX9U&#10;rrrqqquePypXXXXVVc8flav+R5PEC2Obfw9JvDC2+e9km38PSfxnksQLY5v/xahcddVVVz1/VK66&#10;6qqrnj8qV1111VXPH5WrrrrqquePylVXXXXV80flqquuuur5o3LVVVdd9fxRueq/lST+PSTxwtjm&#10;30MS/x62+feQxAtjmxfGNi+MJF4Y27wwknhhJPHvYZv/RlSuuuqqq54/KlddddVVzx+Vq6666qrn&#10;j8pVV1111fNH5aqrrrrq+aNy1VVXXfX8Ubnqqquuev6o/C9nm//NbPPvIYkXRhL/HrZ5YSTx7yGJ&#10;fw9J/HvY5oWRxAtjm//DqFx11VVXPX9UrrrqqquePypXXXXVVc8flauuuuqq54/KVVddddXzR+Wq&#10;q6666vmjctVVV131/FH5H04S/5dJ4j+Tbf49JPE/mW1eGEm8MJL47ySJF8Y2/42oXHXVVVc9f1Su&#10;uuqqq54/KlddddVVzx+Vq6666qrnj8pVV1111fNH5aqrrrrq+aNy1VVXXfX8Idvmqquuuup5Ubnq&#10;qquuev6oXHXVVVc9f1Suuuqqq54/KlddddVVzx+Vq6666qrnj8pVV1111fNH5aqrrrrq+aNy1VVX&#10;XfX8Ubnqqquuev6oXHXVVVc9f1Suuuqqq54/KlddddVVzx+Vq6666qrnj8pVV1111fNH5aqrrrrq&#10;+aNy1VVXXfX8Ubnqqquuev6oXHXVVVc9f1Suuuqqq54/KlddddVVzx+Vq6666qrnj8pVV1111fNH&#10;5aqrrrrq+aNy1VVXXfX8Ubnqqquuev6oXHXVVVc9f1Suuuqqq54/KlddddVVzx+Vq6666qrnj8pV&#10;V1111fNH5aqrrrrq+eMfAYIYX0yoW0yAAAAAAElFTkSuQmCC&#10;"
       id="image1-06"
       x="197.66745"
       y="201.10605" /><image
       preserveAspectRatio="none"
       inkscape:svg-dpi="96"
       width="37.195179"
       height="37.195179"
       style="image-rendering:optimizeQuality"
       xlink:href="data:image/svg+xml;base64,PD94bWwgdmVyc2lvbj0iMS4wIiBlbmNvZGluZz0iVVRGLTgiPz4KPCEtLSBHZW5lcmF0b3I6IEFk&#10;b2JlIElsbHVzdHJhdG9yIDE5LjEuMCwgU1ZHIEV4cG9ydCBQbHVnLUluIC4gU1ZHIFZlcnNpb246&#10;IDYuMDAgQnVpbGQgMCkgIC0tPgo8c3ZnIHZlcnNpb249IjEuMSIgaWQ9IkxheWVyXzEiIHhtbG5z&#10;PSJodHRwOi8vd3d3LnczLm9yZy8yMDAwL3N2ZyIgeG1sbnM6eGxpbms9Imh0dHA6Ly93d3cudzMu&#10;b3JnLzE5OTkveGxpbmsiIHg9IjBweCIgeT0iMHB4IiB2aWV3Qm94PSIwIDAgNTIwIDUyMCIgc3R5&#10;bGU9ImVuYWJsZS1iYWNrZ3JvdW5kOm5ldyAwIDAgNTIwIDUyMDsiIHhtbDpzcGFjZT0icHJlc2Vy&#10;dmUiPgo8cGF0aCBkPSJNMTMuNywxMS45djQ5Ni4yaDM1LjdWNTIwSDBWMGg0OS40djExLjlIMTMu&#10;N3oiLz4KPHBhdGggZD0iTTE2Ni4zLDE2OS4ydjI1LjFoMC43YzYuNy05LjYsMTQuOC0xNywyNC4y&#10;LTIyLjJjOS40LTUuMywyMC4zLTcuOSwzMi41LTcuOWMxMS43LDAsMjIuNCwyLjMsMzIuMSw2Ljgg&#10;IGM5LjcsNC41LDE3LDEyLjYsMjIuMSwyNGM1LjUtOC4xLDEzLTE1LjMsMjIuNC0yMS41YzkuNC02&#10;LjIsMjAuNi05LjMsMzMuNS05LjNjOS44LDAsMTguOSwxLjIsMjcuMywzLjZjOC40LDIuNCwxNS41&#10;LDYuMiwyMS41LDExLjUgIGM2LDUuMywxMC42LDEyLjEsMTQsMjAuNmMzLjMsOC41LDUsMTguNyw1&#10;LDMwLjd2MTI0LjFoLTUwLjlWMjQ5LjZjMC02LjItMC4yLTEyLjEtMC43LTE3LjZjLTAuNS01LjUt&#10;MS44LTEwLjMtMy45LTE0LjMgIGMtMi4yLTQuMS01LjMtNy4zLTkuNS05LjdjLTQuMi0yLjQtOS45&#10;LTMuNi0xNy0zLjZjLTcuMiwwLTEzLDEuNC0xNy40LDQuMWMtNC40LDIuOC03LjksNi4zLTEwLjQs&#10;MTAuOGMtMi41LDQuNC00LjIsOS40LTUsMTUuMSAgYy0wLjgsNS42LTEuMywxMS4zLTEuMywxN3Yx&#10;MDMuM2gtNTAuOXYtMTA0YzAtNS41LTAuMS0xMC45LTAuNC0xNi4zYy0wLjItNS40LTEuMy0xMC4z&#10;LTMuMS0xNC45Yy0xLjgtNC41LTQuOC04LjItOS0xMC45ICBjLTQuMi0yLjctMTAuMy00LjEtMTgu&#10;NS00LjFjLTIuNCwwLTUuNiwwLjUtOS41LDEuNmMtMy45LDEuMS03LjgsMy4xLTExLjUsNi4xYy0z&#10;LjcsMy02LjksNy4zLTkuNSwxMi45Yy0yLjYsNS42LTMuOSwxMy0zLjksMjIuMSAgdjEwNy42aC01&#10;MC45VjE2OS4ySDE2Ni4zeiIvPgo8cGF0aCBkPSJNNTA2LjMsNTA4LjFWMTEuOWgtMzUuN1YwSDUy&#10;MHY1MjBoLTQ5LjR2LTExLjlINTA2LjN6Ii8+Cjwvc3ZnPg==&#10;"
       id="image1-6"
       x="214.56105"
       y="152.65829" /><text
       xml:space="preserve"
       style="font-size:16.9333px;line-height:0;font-family:'Pixelify Sans';-inkscape-font-specification:'Pixelify Sans';fill:#000000;stroke:none;stroke-width:9.22499;stroke-linecap:square;stroke-dasharray:none;stroke-opacity:0.995772;paint-order:stroke fill markers"
       x="197.86168"
       y="204.85553"
       id="text8"><tspan
         sodipodi:role="line"
         id="tspan8"
         style="fill:#000000;stroke-width:9.225"
         x="197.86168"
         y="204.85553">[matrix]</tspan></text><image
       width="31.972216"
       height="31.972216"
       preserveAspectRatio="none"
       style="image-rendering:optimizeQuality"
       xlink:href="data:image/png;base64,iVBORw0KGgoAAAANSUhEUgAAAQMAAAEDCAYAAAAx0WHLAAAM6ElEQVR4Ae3gAZAkSZIkSRKLqpm7&#10;R0REZmZmVlVVVVV3d3d3d/fMzMzMzMzMzMzMzMzMzMzMzMzMzMzMzMzMzMzMzMzMzMzMzMzMzMzM&#10;zMzMzMzMzMzMzMzMzMzMzMzMzMzMzMzMzMzMzMzMzMzMzMzMzMzMzMzMzMzMdHd3d3dXV1VVVVVm&#10;ZkZGRIS7m5kKz0xmV3d1d3dPz8zMzMxMYrVtrrrqqv/PAKhcddVV/98BULnqqqv+vwOgctVVV/1/&#10;B0Dlqquu+v8OgMpVV131/x0Alauuuur/OwAqV1111f93AFSuuuqq/+8AqFx11VX/3wFQueqqq/6/&#10;A6By1VVX/X8HQOWqq676/w6AylVXXfX/HQCVq6666v87ACpXXXXV/3cAVK666qr/7wCoXHXVVf/f&#10;AVC56qqr/r8DoHLVVVf9fwdA5aqrrvr/DoDKVVdd9f8dAJWrrrrq/zsAKlddddX/dwBUrrrqqv/v&#10;AKhcddVV/98BULnqqqv+vwOgctVVV/1/B0Dlv5gk/rezzQsiiRfENv8WkviPZpt/C0n8T2GbF0QS&#10;/9vZ5r8IAJWrrrrq/zsAKlddddX/dwBUrrrqqv/vAKhcddVV/98BULnqqqv+vwOgctVVV/1/B0Dl&#10;fxDb/E8hif9okvifQhIviG3+K9nmv5Jt/qeQxP8AAFSuuuqq/+8AqFx11VX/3wFQueqqq/6/A6By&#10;1VVX/X8HQOWqq676/w6AylVXXfX/HQCV/yUk8R/NNv/RbPOCSOIFsc2/hST+o0niBbHNfzRJvCC2&#10;+a8kif9otvkfDoDKVVdd9f8dAJWrrrrq/zsAKlddddX/dwBUrrrqqv/vAKhcddVV/98BULnqqqv+&#10;vwOgctV/KEm8ILZ5QSTxgtjmBbHNfzRJvCCS+I9mm6v+WwFQueqqq/6/A6By1VVX/X8HQOWqq676&#10;/w6AylVXXfX/HQCVq6666v87ACpXXXXV/3cAVK76D2WbfwvbvCCS+N/ANv8WknhBbHPVfzoAKldd&#10;ddX/dwBUrrrqqv/vAKhcddVV/98BULnqqqv+vwOgctVVV/1/B0Dlqquu+v8OgMr/Erb5304SL4ht&#10;/i1s828hiRfENv8WkviPJokXxDb/0Wzz/xAAlauuuur/OwAqV1111f93AFSuuuqq/+8AqFx11VX/&#10;3wFQueqqq/6/A6By1VVX/X8HQOV/EEn8byeJF8Q2L4gkXhDbvCCSeEFs8x9NEi+IbV4QSbwgtnlB&#10;JPEfTRJXPQcAKlddddX/dwBUrrrqqv/vAKhcddVV/98BULnqqqv+vwOgctVVV/1/B0Dlqquu+v8O&#10;gMp/Mdv8fyWJF8Q2L4gkXhDbvCCS+I9mmxdEEv9T2OaqFxkAlauuuur/OwAqV1111f93AFSuuuqq&#10;/+8AqFx11VX/3wFQueqqq/6/A6By1VVX/X8HQOW/mCReENu8IJL4t7DNCyKJ/2i2+b9MEi+IbV4Q&#10;Sfxb2ObfQhIviG3+LSTxgtjmBZHEv4Vt/osAULnqqqv+vwOgctVVV/1/B0Dlqquu+v8OgMpVV131&#10;/x0Alauuuur/OwAqV1111f93AFT+j5PEC2Kb/2iSeEFs84JI4j+abf43kMR/JUn8W9jm38I2L4gk&#10;/gcAoHLVVVf9fwdA5aqrrvr/DoDKVVdd9f8dAJWrrrrq/zsAKlddddX/dwBUrrrqqv/vAJBt819I&#10;Ev/RbPNvIYn/aLZ5QSTxgtjmBZHEv4VtXhBJvCC2+beQxAtim/9okviPZpt/C0n8W9jmfwAAKldd&#10;ddX/dwBUrrrqqv/vAKhcddVV/98BULnqqqv+vwOgctVVV/1/B0Dlqquu+v8OgMr/ILb5t5DEfzTb&#10;vCCS+K9km38LSfxHk8QLYpv/KWzzgkjiP5pt/i0k8YLY5r8IAJWrrrrq/zsAKlddddX/dwBUrrrq&#10;qv/vAKhcddVV/98BULnqqqv+vwOgctVVV/1/B0Dl/wDb/EeTxAtimxdEEi+IbV4QSbwgtvm3sM1/&#10;NNv8T2Gb/0qS+LewzQtim/8BAKhcddVV/98BULnqqqv+vwOgctVVV/1/B0Dlqquu+v8OgMpVV131&#10;/x0Alauuuur/OwBk2/wPIYkXxDYviCT+LWzzbyGJ/yls84JI4gWxzb+FJP4r2ebfQhIviG3+o0ni&#10;P5pt/osAULnqqqv+vwOgctVVV/1/B0Dlqquu+v8OgMpVV131/x0Alauuuur/OwAqV1111f93AFT+&#10;i0niBbHNCyKJF8Q2L4gkXhBJ/FvY5t9CEi+IbV4QSfxb2OYFkcQLYpv/aLZ5QSTxgkjiP5ok/i1s&#10;838UAJWrrrrq/zsAKlddddX/dwBUrrrqqv/vAKhcddVV/98BULnqqqv+vwOgctVVV/1/B0Dlv5ht&#10;/i1s8x/NNv8WkvjfQBIviG1eEEn8W9jmfwrb/FtI4t/CNi+IJF4Q2/wPAEDlqquu+v8OgMpVV131&#10;/x0Alauuuur/OwAqV1111f93AFSuuuqq/+8AqFx11VX/3wFQ+V9CEv8WtnlBJPFvYZt/C0m8IJJ4&#10;QWzzb2GbfwvbvCCS+LeQxP92knhBbPO/GACVq6666v87ACpXXXXV/3cAVK666qr/7wCoXHXVVf/f&#10;AVC56qqr/r8DoHLVVVf9fwdA5X8QSfxXss2/hSReENv8W9jmBZHEC2KbF0QSL4ht/i1s8x/NNi+I&#10;JF4Q2/xbSOIFsc0LIokXRBL/iwFQueqqq/6/A6By1VVX/X8HQOWqq676/w6AylVXXfX/HQCVq666&#10;6v87ACpXXXXV/3cAVP6LSeIFsc1/NEn8R7PNv4Vt/qNJ4gWxzb+FJP4tbPM/hST+LSTxgtjmBZHE&#10;C2Kb/+EAqFx11VX/3wFQueqqq/6/A6By1VVX/X8HQOWqq676/w6AylVXXfX/HQCVq6666v87ACr/&#10;xWzzH00S/xa2+a8kiX8L2/xvIIkXxDYviCT+LSTxH802/w8BULnqqqv+vwOgctVVV/1/B0Dlqquu&#10;+v8OgMpVV131/x0Alauuuur/OwAqV1111f93AFT+B5HEv4Vt/i0k8V/JNv8WkviPZpv/SpL430AS&#10;/w8BULnqqqv+vwOgctVVV/1/B0Dlqquu+v8OgMpVV131/x0Alauuuur/OwAqV1111f93AMi2ueo/&#10;jCReENv8W0jiqudlm/9okvifwjb/RQCoXHXVVf/fAVC56qqr/r8DoHLVVVf9fwdA5aqrrvr/DoDK&#10;VVdd9f8dAJWrrrrq/zsAKv/FJPG/nW3+LSTxH802L4gkXhDb/EeTxAtimxdEEv/RJPGC2OY/mm1e&#10;EEm8ILb5HwCAylVXXfX/HQCVq6666v87ACpXXXXV/3cAVK666qr/7wCoXHXVVf/fAVC56qqr/r8D&#10;oPI/iG3+p5DEfzTbvCCS+LeQxAtim/9KtnlBJPGC2OYFkcS/hW3+N5DEC2Kb/yIAVK666qr/7wCo&#10;XHXVVf/fAVC56qqr/r8DoHLVVVf9fwdA5aqrrvr/DoDKVVdd9f8dAJX/JSTxH802/9Fs84JI4n8K&#10;SfxXss1/NEn8V7LNCyKJF8Q2/8MBULnqqqv+vwOgctVVV/1/B0Dlqquu+v8OgMpVV131/x0Alauu&#10;uur/OwAqV1111f93AFSu+g8liRfENv8WkvjfThIviG1eENu8IJJ4QWzzgkji30ISL4ht/i0k8YLY&#10;5r8IAJWrrrrq/zsAKlddddX/dwBUrrrqqv/vAKhcddVV/98BULnqqqv+vwOgctVVV/1/B0Dlqv8R&#10;JPGC2OYFkcR/NNv8W0jiBbHNv4UkXhDb/Eezzb+FJF4Q2/wPB0Dlqquu+v8OgMpVV131/x0Alauu&#10;uur/OwAqV1111f93AFSuuuqq/+8AqFx11VX/3wFQ+V/CNv8b2Obfwjb/U0jiBbHNC2KbF0QSL4ht&#10;/qNJ4t9CEv8WtnlBJPGC2OZ/AAAqV1111f93AFSuuuqq/+8AqFx11VX/3wFQueqqq/6/A6By1VVX&#10;/X8HQOWqq676/w6Ayv8gkvjfThL/G9jmBZHE/2W2eUEk8YLY5v8oACpXXXXV/3cAVK666qr/7wCo&#10;XHXVVf/fAVC56qqr/r8DoHLVVVf9fwdA5aqrrvr/DgDZNlddddX/ZwBUrrrqqv/vAKhcddVV/98B&#10;ULnqqqv+vwOgctVVV/1/B0Dlqquu+v8OgMpVV131/x0Alauuuur/OwAqV1111f93AFSuuuqq/+8A&#10;qFx11VX/3wFQueqqq/6/A6By1VVX/X8HQOWqq676/w6AylVXXfX/HQCVq6666v87ACpXXXXV/3cA&#10;VK666qr/7wCoXHXVVf/fAVC56qqr/r8DoHLVVVf9fwdA5aqrrvr/DoDKVVdd9f8dAJWrrrrq/zsA&#10;KlddddX/dwBUrrrqqv/vAKhcddVV/98BULnqqqv+vwPgHwGEVSHw/56hcAAAAABJRU5ErkJggg==&#10;"
       id="image1-4"
       x="465.08539"
       y="187.12949" /><text
       xml:space="preserve"
       style="font-size:16.9333px;line-height:0;font-family:'Pixelify Sans';-inkscape-font-specification:'Pixelify Sans';fill:#ff6600;stroke:none;stroke-width:9.22499;stroke-linecap:square;stroke-dasharray:none;stroke-opacity:0.995772;paint-order:stroke fill markers"
       x="350.61185"
       y="178.11639"
       id="text9"><tspan
         sodipodi:role="line"
         id="tspan9"
         style="fill:#ff6600;stroke-width:9.225"
         x="350.61185"
         y="178.11639">Server Developers</tspan></text><image
       width="22.983969"
       height="22.983969"
       preserveAspectRatio="none"
       style="image-rendering:optimizeQuality"
       xlink:href="data:image/png;base64,iVBORw0KGgoAAAANSUhEUgAAALQAAAC0CAYAAAA9zQYyAAAABHNCSVQICAgIfAhkiAAAEwtJREFU&#10;eJztnU2QG8d5ht/uHgCLHxImDO4ytEVF66rELnN5yCFkrqRzFKlTqkRVcrGV5Bb5kKpUquIqH3y2&#10;fHIi6RKXRZ6SCslKLjZ5jKXkuExFFYdLxZRILrhaein87ALT3TkMBsCCGPzOdE93z3OhCGLRLeDd&#10;D9/79dfdpO1LiYwMS/B0T8B0/PYueu0Gugc74L0mAOBwb3vic2mujHx1EwBQqG6C5ir9P8vK5ms7&#10;JIvQ8+O3d9HZ28bRwQ66BzvoRAh3EjRXhui1Iv+tUN3EWn0LheomCtVNeKWNuKbtFJmgZ9DZ20br&#10;ya/QevIryMMGuFAzbr76Gor1Czhx7jso9KN6xmwyQU9A9pp4/uAWDh7cioyqKvFK6/jKN97AiXPf&#10;ydKTGWSCHmP/kw9TI+RxaK6M2jffQvUb13RPJbVkgg7hLez/x9/g+e6O7pnMpHbuIk79wQ90TyOV&#10;UN0TSAvik7+D/+VD3dOYi/LRf6L36T/qnkYqyQQNgDz7NxT9/4VQZPjioPDFP0EcNnRPI3U4L2jS&#10;bSD3+AMAwGHXjOyr1ZHwGMD+5291TyV1OC9o+uBHIPABQFlJLg4IAfKyAfL5h7qnkiqcFjR7dhte&#10;14y8eZRykQz+O//8Dkg3Sz1CnBU06TbAnvxM9zRWRvRa8HZ+qHsaqcFZQXuP3weRXd3TWIpW53iu&#10;T48egR58pGk26cJJQdODj0APPtY9jaVhjCBcPaA0SD9yj94FePoWg1TjnqB5C16/qjEOM+TdWMsH&#10;fx5bEuNtsCc3tMwnTRjyEcaH9+x2pIlay5OJj6cNRoMqBxmbrvfFHZBO+lc6k8QpQZNuA2z3pu5p&#10;rEzOi/7Fi/r2cQWnBO09fn/qvxfyiiayIrkp2zJo877TBtEZQdPm9kwjyFj6U4550iLv8/cUzCSd&#10;OCPoeb6Ky2sKJhIDs/ojSW8P3lPzU6tlcELQbP8uSGf2imCxkP4IffoUeckMToLt3XKyjGe/oHlr&#10;biNIyPT8NA3MXVrkbXhP3SvjWS/oaWW6SeSnVBDSQGlt/vmxPff6POwWNG8FX70LUKumV9DlBcQc&#10;wnbditJWC9p7dhvg7YV+Js0pxzJlRbZ/z6koneKPb0WWiM5AUBbLeUDPn+/5xfoWACA/cmBMsX5h&#10;4nODQ2l2AQDdgx2IXgtH/T/n4WR5uW8PtnsD/ivvLPWzpmGtoJeJziEnSgT7L4a1MZorwyutI1fa&#10;QLF+Afn+YTCLHymwFfkvRwc78Nu7ODrYwWH/MJtRoee8xfLnUdj+PfCN65D59aV+3iTs3PXNWyj8&#10;93eXFnT7UOIZ/hD56iaK9QuDKKyaUOCdvW3kvvx3rJf3l34tXrvsRJS2UtDe05sr9WxICXS3bgIs&#10;PYe65D790cotr91vfWB9lLbPFC6ZO49CCMDS1A/BW7H0b7tQ8bBO0Ozgo6VTjWPs3l79NWIirl+u&#10;4L2xe/XQPkHH1B7qdR+mptxFG/8czwvxNtj+3XheK6VYJWja3I5VhGn4iibdBujRo9hejz37l9he&#10;K43YJejn8UafNHxF08ZqfmAc0tuzeleLVYKO3cjp/ormLXi/jX98m9MOawRNm9vxmMEx2J4+c8j2&#10;7yby/0Rb92N/zbRgjaCTgnQb2iJaUvnuPL3hppIJeg50bKxl+3dBenvKxzWdTNBzoCNKs6fJHcIo&#10;i68l9tq6sUbQMuFlarZ7U1nFI+nonPR7pRN7BF1M9qYo0m0EHXwKSDI6A4BcyyK0EYjK+URfX8XG&#10;UxW5c9K//DqxStCJRx7ennlYzWqv30o8OgOAyHJoMxCV5PuWk9zS5D27nXxlg5WyCG0KKgQNAN6j&#10;d+N/0RjaXucapnop8TF0YpWgwcpKSlK0eT9YmYyRVbaMLYIs69l9owq7BA2An7qiZBzv0U9iey2V&#10;p6JmEdowkq50hMS52KKqTVVUL6ZqW1kSWCdoWdxUtm/Oe/z+ymU82twG278X04ymI07aHZ0BCwUN&#10;ALx+VdFA7ZUXW1T2idiebgCWCloo/ODY7s2ly3j04CPQpppWTl67bH26AVgqaJlfV5ZLA7NvBoj+&#10;OXXXR7iQbgCWChoAhKJqBwDQg48XLuOxBU9FXQWZqyv91tKJtYLm1UsAKykbb6Foy1vwFG7AFbU/&#10;VjaWbqwVNFhZWU0aCHaBzFvG857eULKIEsJr6t4H3dgraAD89DWl481TxiPdBtjeHUUzCmrPth//&#10;NYrVglZtDue5BoJ9lmC33gR8VSXMlGC1oAGFNek+066BIC+2IffVnZknc3VIRQ1bacF6QYvqJeVf&#10;uVHdeOQ374EofMf5mbfUDZYSrBc0APCNN5WOR5v3QV4cL+PJxi8h2w8hOeD3JKRIeBKs5JQZDHFD&#10;0IpLeACQ+3zYjSd7Tfi//gcIDggpAQlwnuyx3Lyu1hCnBScEDVZW/gGTbgOs3+ch/u9DkH6ZTnBA&#10;SglCASESEjUrwT/tlhkMcUPQQPABK47S7MnPQDo76H0anIDEexKCS0gA3JczrzheFl6/5kTfxiSc&#10;EbTqhRYAILIL8skPXnpc8ODPMJ+OGxdz5xB3BA31Cy0AkKMvAAB+V8DvCkgBCC6PpR5xRmpeu+zU&#10;Qso4Tgla5teDNkqVY0qgUgtuzyMsuJYtFHWYenA/vqoH37gezwsZilOCBtR/4IQAlBLkigVILuF3&#10;Jyg3pqqH69EZcFDQOqI0IUC+wI/PQwB+d5h6AKvn065HZ8BBQQN6PngvR5BbC95uvyuORWQJQPZL&#10;eMumHll0DnBS0DqiNACUTrCXHgtKeYGoV0k9sugc4KSgAX0CKJ5gQUTmcpBiCL8fnZdMPbLoPMRZ&#10;Qcv8Onj9deXj5tcocvngbZdcQopggUVwgPPlUo8sOg9xVtAA4J+5rnz1EAAKJYrxVe8wSgOLiZpv&#10;vJlF5xGcFrSOHg8gMIilCoPo58yC96O0L8H7kdrvzaFmh3s2onBb0NDT4wEALEdAECywABikHgBA&#10;+96R8+kLLi73bEThvKB1RuliJVCuEMFqITBcFg/zaSEni1qSfBadJ5AJGoB/Rk8eWihRUEoGURo4&#10;njeHj8oJzR78d/4si84TyATdR/WulpBy1YMUQc9H2MA0KnDhSxBCjgs9vw6eReeJZILuw2tXtNzf&#10;5+UJCqUg9QgDsRTDBZfQII6mHrp++UwgE/QI/tnvaRm3UKLBYsvY4+ORGgjOv3a533kWmaBHEJUt&#10;ted49PFyBPnC8KOY1OsBBFWPLDpPJxP0GP4r72gZt1xloATHFlxGUw8pglOQVF2MZCqZoMfQ1bgE&#10;BH0e/pGAkMGyeBilhS8Dob/651rmZRKZoCfgn31by2JLfo0iv0ZB+n8f7fXA17Il7nnIBD0JTYst&#10;AFD+iofekRhUPLgvIVkJ5GtvaJmPaWSCjkDXYouXIzjx1VywYigkQAB67q1sEWVOMkFPQVcZz8sR&#10;UBYsppDyJtgrWXSel0zQUxDVS9rKeKWTDEIA3u/9hfLxTSYT9Ax0lfHyaxRrG+fBahe0jG8qmaBn&#10;wEkZ7aaet6lU7mgZ12QyQc/g6L9+itbzTiJHds2CHj0aHPiYMR+ZoKcgXjxA77NfQEqg+dzXMgdv&#10;98bK1y+7RCboKXQ/+XsQSgACdA8FuodJn1I+gTnubckYkgk6Av74F5AHwbXFlAZrdy++0BOl2d4d&#10;kM6OlrFNIxP0JHgLvV+/ByAooQEA6e8saR3waT+ZGCqvUTaZTNAT4A9/DiJaIGT4GCEACNB64esx&#10;iM37c1/s6TKZoMcgnR3Ix7fB2FDNLEfAcmSQemgziHNc7Ok6maDHEA+GV68RRkACTwjej8qUEr0G&#10;MSvjTSUT9Aiy8UvQ9v3B38MoTcgwSodoM4i7NyMv9szIBD2Et+B99gEgAyMYRmmvfw5dP9uAFBKU&#10;aTaIERd7ZmSCHsAf/hwEw/yUspdFTQB4BRrk04yg9UJPlKbN+6AH6q5YNolM0AiMYKn1r2AsECqA&#10;wa6R8XwaAPwjMXjOwbOe2sn2ycp4k8kEjZfFQWkQnb2RnJmNCD2M0iQ0iEfqDSLpNuA9val83LTj&#10;vKDZ/l3Q5ogR9IKyRliioyORmXkvVz0AaMul2d6tzCCO4bageQvss58ee2h0MSUUdfg4oWQg6tGq&#10;R+9IoP2lBlHzdlCbzhjgtKC9pzdAZPflx3NkkEQzBlCPgHrk2HP6PUvwCsGBi63fajKIBx+DNre1&#10;jJ1GnBU06eyA7d2Z8aSxv45E6fDvQFDKI5ToM4i/+bGWcdOIs4KeVSUYbUpibHgIefhYWMoDgigN&#10;BC2mfld9nwfp7WUbAfo4KehxIxjFaJWDIEg9wjJeeA9Kv2cp+G9K0NSUemQbAQLcEzRvLWSkGBvm&#10;z5RhWKceMYgABgaxeyhw2NbU55EZRPcE7T29AfD23M8nNDgokRAyiMQs97Kow4IIZQSdJtfSYsr2&#10;7zlvEJ0S9FxGcAJh1SPMp4Hjog4JWkyDlcQjHVEaQfOSyzgl6FWWiwcmkQxFHUL6aQglwX97BYr2&#10;l1yLQXR9I4Azgp7XCC70mn2RM3a86uEfCRACfQbR4Y0Abgh6QSMYBWPDGnSYaZCxd3C016N3JMBP&#10;XFx53IVxeKe4E4Je1AhGEYo3LN9RgmNbtQgjQS81AEiJtd//U/ivvoOeOLny2Ivi6k5x6wW9rBGc&#10;+proVz0ojnXlje5wIcUN5H73DYCVQb7+J7GOPy8utphaL+i4P1RCAzGHVY/Rx0fJf/MvQXIVAAA/&#10;fVXLlXEubgSwWtBJGEEgEC9jZBiR+38Pz3Vmp74NdvqPjv2MtrOmP3/PKYNor6BjMoJREBpcWUxZ&#10;0EZK2PD6Ne/bf/3S80VlS8tlRKS359ROcWsFHZcRnAbpr3tLAYh+OzR99TrI2sbE5+u6jMilneJW&#10;CjoJIzhxnNFtWh4BLa6DnJ1yfQQrw9+4nvi8JuFKn4eVgs49+onyMT0CYPP7gDf9ch9tBtGRjQDW&#10;CZo9uw3Seah0TC9HQGqXIE/Od8urNoPowEYAuwTNW0FfsGpYCfzrb8/9dK0G0fKd4lYJOuhhSNYI&#10;ToLXry18p6E2g7h3y+oynjWCps1tsP17yseVuTr8M28u/oO6DKLlGwGsEbSuZV7/3PeX/lldBtHm&#10;jQBWCFqHEQQAUb0IUZnPCEahzSBa2udhvqA1GsFeDJdyajOInYdWbgQwXtC6jKC/cT22C+V1GUQb&#10;NwIYLWhtRrD4Gvjpq/G9oE6DaNlGAKMFrc0IJpD3ajOIlm0EMFbQuowgr11e2QhGkRnE1TFT0BqN&#10;oH92/hXBRdFlEG3aCGCkoG0wgpFjaDOIH1hhEI0TtDVGMApNBpF0G1ZsBDBO0Lryvd4rf6VsLH0G&#10;0fwbAYwStDYjWH8dsripdEwtBtGCPg9zBK3TCJ5RnwJoM4iGbwQwRtDajODZtxM3gtPH1mQQDcUI&#10;QesygqJyHrx2Rfm4A3QZxM5DY28EMELQuo6I1bXQMYoug2jqjQCpF3RSh8XMQocRjEKbQTSwzyPd&#10;gk74sJhINBnBKERlC6Kq/hRTtnfHuDJeqgWt4rCYSeg0glFoM4iP3lU+5iqkVtCk21ByWMw42o1g&#10;BDK/Dl6/pnxc2rxvVBkvtYLWFRn8GHahJIV/5s2Fd5fHgafh4J5lSaWgaXNbjxHc0COYRfAVLsGH&#10;kG7DmO1aqRS0jogg8+vwVTQfrYg2g2jI7VqpEzRtbmtx1v7Z76XOCEahwyCSbsOInunUCVpUtpR/&#10;WKJyHqJ6SemYq6DFILJSYjt14iR1ggag/MNKsxGMQrVB5KeuGPENlkpB+6evKovSJhjBKFQaRH5a&#10;fclwGVIpaLCykihtihGMQlS2ICrnEx+H1y4b80ufTkEDSoRmkhGMQkW6xDXdOrAMqRU0WDnRBnfT&#10;jGAUMr8OvrHE6adzYlJ0BtIsaCQbGUw0glH4p68mJjpxKn1tANNItaBlfj2RKG2yEZwIKyfSYioq&#10;540o1Y2SakED8Udp041gFKJ6KXaDmGQqkxSpF7TMr8f6QdlgBKOIM0qbGJ0BAwQNxBcpbDGCUcji&#10;Jnj99Vhey7TcOcQIQcdVb7XJCEbhn7m+8qJU4F0yQSfKqlGa11+3ywhGwcorHyhpYu4cYoygRWVr&#10;+d3PKdsjmDS8dmXp98rk6AwYJGgA4PXlqhNp3COYNMsaxGXf47RglqBrVxZOG9K6RzBpljpKjJWM&#10;f6+MEjSweH5ncj64KnxjMYPI69eM/yYzT9ALROkkr48wgYU2ArCSFQtOxgkamLNGmvD1EaYwb5+H&#10;KQ38szBS0PNsALDh6zMWWHmutMuUBv5ZGCnoWRsAZH59uQvlLYXXrkxdmDKtRXQaZgoa06N0Gk4N&#10;TRvTorRJDfyzMFbQYGXwCX0ZtvdrLEtUGc+m6AyYLGhMjixZdI5m0vtl+kLKOEYLenwDAK9dTs2Z&#10;zmlkfLuWqJy37v0yWtDASNRhJatywaQY9R42Ljp5uiewKjK/DlG9CLm2aVUumBj9ChFpbVu56ETa&#10;vpS6J7EqpLMDmd/I6s7zwlsg3V3r0g0A+H8W1bI8ywzbcAAAAABJRU5ErkJggg==&#10;"
       id="image1-69"
       x="326.36563"
       y="162.44153" /><text
       xml:space="preserve"
       style="font-size:16.9333px;line-height:0;font-family:'Pixelify Sans';-inkscape-font-specification:'Pixelify Sans';fill:#ff6600;stroke:none;stroke-width:9.22499;stroke-linecap:square;stroke-dasharray:none;stroke-opacity:0.995772;paint-order:stroke fill markers"
       x="351.47015"
       y="206.82919"
       id="text10"><tspan
         sodipodi:role="line"
         id="tspan10"
         style="stroke-width:9.225"
         x="351.47015"
         y="206.82919">SpiritOTHawk</tspan></text><image
       preserveAspectRatio="none"
       inkscape:svg-dpi="96"
       width="14.762661"
       height="15.760138"
       style="image-rendering:optimizeQuality"
       xlink:href="data:image/svg+xml;base64,PHN2ZyB3aWR0aD0iNzQiIGhlaWdodD0iNzkiIHZpZXdCb3g9IjAgMCA3NCA3OSIgZmlsbD0iYmxh&#10;Y2siIHhtbG5zPSJodHRwOi8vd3d3LnczLm9yZy8yMDAwL3N2ZyI+CjxwYXRoIGQ9Ik03My43MDE0&#10;IDE3LjQzMjNDNzIuNTYxNiA5LjA1MTUyIDY1LjE3NzQgMi40NDY5IDU2LjQyNCAxLjE2NzFDNTQu&#10;OTQ3MiAwLjk1MDg0MyA0OS4zNTE4IDAuMTYzODE4IDM2LjM5MDEgMC4xNjM4MThIMzYuMjkzM0My&#10;My4zMjgxIDAuMTYzODE4IDIwLjU0NjUgMC45NTA4NDMgMTkuMDY5NyAxLjE2NzFDMTAuNTYgMi40&#10;MTE0NSAyLjc4ODc3IDguMzQ2MDQgMC45MDMzMDYgMTYuODI2Qy0wLjAwMzU3ODU0IDIxLjAwMjIg&#10;LTAuMTAwMzYxIDI1LjYzMjIgMC4wNjgxMTIgMjkuODc5M0MwLjMwODI3NSAzNS45Njk5IDAuMzU0&#10;ODc0IDQyLjA0OTggMC45MTQwNiA0OC4xMTU2QzEuMzAwNjQgNTIuMTQ0OCAxLjk3NTAyIDU2LjE0&#10;MTkgMi45MzIxNSA2MC4wNzY5QzQuNzI0NDEgNjcuMzQ0NSAxMS45Nzk1IDczLjM5MjUgMTkuMDg3&#10;NiA3NS44NkMyNi42OTc5IDc4LjQzMzIgMzQuODgyMSA3OC44NjAzIDQyLjcyNCA3Ny4wOTM3QzQz&#10;LjU4NjYgNzYuODk1MiA0NC40Mzk4IDc2LjY2NDcgNDUuMjgzMyA3Ni40MDI0QzQ3LjE4NjcgNzUu&#10;ODAzMyA0OS40MTk5IDc1LjEzMzIgNTEuMDYxNiA3My45NTYyQzUxLjA4NDEgNzMuOTM5NyA1MS4x&#10;MDI2IDczLjkxODQgNTEuMTE1NiA3My44OTM4QzUxLjEyODYgNzMuODY5MyA1MS4xMzU5IDczLjg0&#10;MjEgNTEuMTM2OCA3My44MTQ0VjY3LjkzNjZDNTEuMTM2NCA2Ny45MTA3IDUxLjEzMDIgNjcuODg1&#10;MiA1MS4xMTg2IDY3Ljg2MkM1MS4xMDY5IDY3LjgzODggNTEuMDkwMiA2Ny44MTg0IDUxLjA2OTUg&#10;NjcuODAyNUM1MS4wNDg5IDY3Ljc4NjUgNTEuMDI0OSA2Ny43NzUzIDUwLjk5OTQgNjcuNzY5NkM1&#10;MC45NzM4IDY3Ljc2NCA1MC45NDczIDY3Ljc2NDEgNTAuOTIxOCA2Ny43Njk5QzQ1Ljg5NzYgNjgu&#10;OTU2OSA0MC43NDkxIDY5LjU1MTkgMzUuNTgzNiA2OS41NDI1QzI2LjY5NCA2OS41NDI1IDI0LjMw&#10;MzEgNjUuMzY5OSAyMy42MTg0IDYzLjYzMjdDMjMuMDY4MSA2Mi4xMzE0IDIyLjcxODYgNjAuNTY1&#10;NCAyMi41Nzg5IDU4Ljk3NDRDMjIuNTc3NSA1OC45NDc3IDIyLjU4MjUgNTguOTIxIDIyLjU5MzQg&#10;NTguODk2NUMyMi42MDQzIDU4Ljg3MjEgMjIuNjIxIDU4Ljg1MDUgMjIuNjQxOSA1OC44MzM2QzIy&#10;LjY2MjkgNTguODE2NyAyMi42ODc2IDU4LjgwNDkgMjIuNzE0IDU4Ljc5OTJDMjIuNzQwNCA1OC43&#10;OTM0IDIyLjc2NzggNTguNzk0IDIyLjc5NCA1OC44MDA3QzI3LjczNDUgNTkuOTc5NiAzMi43OTkg&#10;NjAuNTc0NiAzNy44ODEzIDYwLjU3MzNDMzkuMTAzNiA2MC41NzMzIDQwLjMyMjMgNjAuNTczMyA0&#10;MS41NDQ3IDYwLjU0MTRDNDYuNjU2MiA2MC4zOTk2IDUyLjA0MzcgNjAuMTQwOCA1Ny4wNzI4IDU5&#10;LjE2OTRDNTcuMTk4MyA1OS4xNDQ2IDU3LjMyMzcgNTkuMTIzMyA1Ny40MzEzIDU5LjA5MTRDNjUu&#10;MzYzOCA1Ny41ODQ3IDcyLjkxMjggNTIuODU1NSA3My42Nzk5IDQwLjg3OTlDNzMuNzA4NiA0MC40&#10;MDg0IDczLjc4MDMgMzUuOTQxNSA3My43ODAzIDM1LjQ1MjNDNzMuNzgzOSAzMy43ODk2IDc0LjMy&#10;MTYgMjMuNjU3NiA3My43MDE0IDE3LjQzMjNaTTYxLjQ5MjUgNDcuMzE0NEg1My4xNTE0VjI3LjEw&#10;N0M1My4xNTE0IDIyLjg1MjggNTEuMzU5MSAyMC42ODMyIDQ3LjcxMzYgMjAuNjgzMkM0My43MDYx&#10;IDIwLjY4MzIgNDEuNjk4OCAyMy4yNDk5IDQxLjY5ODggMjguMzE5NFYzOS4zODAzSDMzLjQwNzhW&#10;MjguMzE5NEMzMy40MDc4IDIzLjI0OTkgMzEuMzk2OSAyMC42ODMyIDI3LjM4OTQgMjAuNjgzMkMy&#10;My43NjU0IDIwLjY4MzIgMjEuOTU1MiAyMi44NTI4IDIxLjk1MTYgMjcuMTA3VjQ3LjMxNDRIMTMu&#10;NjE3NlYyNi40OTM3QzEzLjYxNzYgMjIuMjM5NSAxNC43MTU3IDE4Ljg1OTggMTYuOTExOCAxNi4z&#10;NTQ1QzE5LjE3NzIgMTMuODU1MiAyMi4xNDg4IDEyLjU3MTkgMjUuODM3MyAxMi41NzE5QzMwLjEw&#10;NjQgMTIuNTcxOSAzMy4zMzI1IDE0LjE5NTUgMzUuNDgzMiAxNy40Mzk0TDM3LjU1ODcgMjAuODg1&#10;M0wzOS42Mzc3IDE3LjQzOTRDNDEuNzg4NCAxNC4xOTU1IDQ1LjAxNDUgMTIuNTcxOSA0OS4yNzY1&#10;IDEyLjU3MTlDNTIuOTYxNCAxMi41NzE5IDU1LjkzMjkgMTMuODU1MiA1OC4yMDU1IDE2LjM1NDVD&#10;NjAuNDAxNyAxOC44NTc0IDYxLjQ5OTcgMjIuMjM3MSA2MS40OTk3IDI2LjQ5MzdMNjEuNDkyNSA0&#10;Ny4zMTQ0WiIgZmlsbD0iaW5oZXJpdCIvPgo8L3N2Zz4K&#10;"
       id="image1-52"
       x="331.43848"
       y="195.38164" /><text
       xml:space="preserve"
       style="font-size:16.9333px;line-height:0;font-family:'Pixelify Sans';-inkscape-font-specification:'Pixelify Sans';fill:#ff6600;stroke:none;stroke-width:9.22499;stroke-linecap:square;stroke-dasharray:none;stroke-opacity:0.995772;paint-order:stroke fill markers"
       x="351.5968"
       y="223.99588"
       id="text11"><tspan
         sodipodi:role="line"
         id="tspan11"
         style="stroke-width:9.225"
         x="351.5968"
         y="223.99588">JesusBrain</tspan></text><text
       xml:space="preserve"
       style="font-size:16.9333px;line-height:0;font-family:'Pixelify Sans';-inkscape-font-specification:'Pixelify Sans';fill:#ff6600;stroke:none;stroke-width:9.22499;stroke-linecap:square;stroke-dasharray:none;stroke-opacity:0.995772;paint-order:stroke fill markers"
       x="351.94507"
       y="240.78006"
       id="text12"><tspan
         sodipodi:role="line"
         id="tspan12"
         style="stroke-width:9.225"
         x="351.94507"
         y="240.78006">Forect_Pro</tspan></text><text
       xml:space="preserve"
       style="font-size:16.9333px;line-height:0;font-family:'Pixelify Sans';-inkscape-font-specification:'Pixelify Sans';fill:#0000ff;stroke:none;stroke-width:9.22499;stroke-linecap:square;stroke-dasharray:none;stroke-opacity:0.995772;paint-order:stroke fill markers"
       x="350.77554"
       y="261.04553"
       id="text13"><tspan
         sodipodi:role="line"
         id="tspan13"
         style="fill:#0000ff;stroke-width:9.225"
         x="350.77554"
         y="261.04553">Staff</tspan></text><text
       xml:space="preserve"
       style="font-size:16.9333px;line-height:0;font-family:'Pixelify Sans';-inkscape-font-specification:'Pixelify Sans';fill:#0000ff;stroke:none;stroke-width:9.22499;stroke-linecap:square;stroke-dasharray:none;stroke-opacity:0.995772;paint-order:stroke fill markers"
       x="350.65677"
       y="276.11908"
       id="text14"><tspan
         sodipodi:role="line"
         id="tspan14"
         style="stroke-width:9.225"
         x="350.65677"
         y="276.11908">arubatoct</tspan></text><image
       width="19.33494"
       height="19.33494"
       preserveAspectRatio="none"
       style="image-rendering:optimizeQuality"
       xlink:href="data:image/png;base64,iVBORw0KGgoAAAANSUhEUgAAAKAAAACgCAYAAACLz2ctAAAABGdBTUEAALGPC/xhBQAAACBjSFJN&#10;AAB6JgAAgIQAAPoAAACA6AAAdTAAAOpgAAA6mAAAF3CculE8AAAAB3RJTUUH4wsWFignvlo+3QAA&#10;AAZiS0dEAP8A/wD/oL2nkwAARyZJREFUeNrtvXmcpVV5J/59zjnvcpfat+6u3oGmbRpoFgEVBAVR&#10;BAEX0Gj2cUkmyUxMMpNMMpPESTKTyc8kZjGjZsaEJGqQXUHcFSWgCIrIIlvva1XXfrd3OeeZP97l&#10;vvfWvVXVLV1VfH73fD7VXffWXc/5vs/yfTagszqrszqrszqrszqrs/7/tqizBSe/7v+5C/orrnUG&#10;gO92duPklrrjA5d0duEk15SR55952bb3f+mj33gvgNnOjpwEAJ994mhnF05ynffuXTftuH77TU99&#10;+8lbANzX2ZGTAOD6c4Y6u3AytstEcNq5rx2+Fs40XvG60fc8/PGn7gdgOjtzggCcfm66swsnsS68&#10;fvPNXaM0Gs4cwtaLB67Z/eWu8wA81tmZEwTgyJauzi6c4AongoF1Fw68U1IFoT+DwvBI79AFve/u&#10;APAkADh0QW9nF05wTb9YuWZ4m3sOvFlICkGmjG2vHXrrPX/wo78CsL+zQycAwGe+1nFCTmSN7a/a&#10;N//Bjp+ycj6FpRqEBIxXxsDmri07Lx24AcDfdHbpBAC489KBzi6cwJp6oXrxmrPzl+ugCiEZEASY&#10;ACQCrL+w9+ZH/3r/PwAodXZqiQA8+lCHvjqRddo1Azd3D4qCLvsgARAxDDNMtYrBbe5FWy7uuQLA&#10;vZ2dWiIAt1zc09mFJa5HHjy++VXn5q9j7YFECCGiQJIgBoc+7IKyC1vsm575p7H7AHBnx5YAwP3f&#10;nu7swhLXKy8fvG5wk7VZexVIoQESABOIAIIBAg8jZ+evPjDs7ADwVGfHlgDA4rDT2YUlrONH/cLA&#10;We7bpQrAQQgSAMiAQGBDEAB0LUBhUK3J73Bu6ABwiQDM7+gAcClr0xr1msEzrEvY9yCEAQGg5F8G&#10;2ABkACkCjOxy3nrbH+z9GIDJzs4tAsBv3XWkswtLWNf83Lq357q1a3wPZCf3cmTpsQDFQDQVD+tO&#10;s3dt2VF4HYA7Oju3mBOyo9DZhUUWl3DG8A77GmgPAkEk9zh2MwxF4o8JBILxDaycUOdf2fuOp26b&#10;vQud+PDCAHQmRWcXFlkbL8pd3z/KG9irQUgNDqmeSckxxJhALCJ17DGGz7Cu3NcrzgXwg84OLuSE&#10;9HYAuNA6fNDv6d+m3qbIB4dBTDw3MSwMQEf3CwPogJHvFUM92+SNHQAuAsCebbKzCwusUDmvHdmC&#10;C43ng8iANIESAHJiBxLABNaRR4zQQEhg5Cx1wzc/NvtRAGOdnWwDwGe+XensQrvN8Umcc33+JjsX&#10;2MYPICwAIccGIABmRLo4AiEZAgyBmMFVxuCoc/baLfbVAP6ls5tt9njtFruzC21WMGV2rtmGq9nz&#10;IaBBhlLszQMhG4BFDEDABBqOG4jTzrff/tAny7cCCDo72gKAxx7v7Eu7tfNK94bufj3CtQBkMWAI&#10;icyLQJg1AhGB0BDAABmCqQUY3KJeN7rFfiWAhzo72gKAox0J2HJVZ/Tg8Gn6RtQCGK1BPsMkiOMm&#10;GxAAKCKlQbE9yAIGBNvhnnVny7e+HAH4xS/MCpxiGkk9cWDulH+R0W3db3nNjdvWlKe9+wAcfjls&#10;/ti3n7oyb9O53tFIQwgCKCaemRMCOvMEikBIkkCCACHAIJAjUBxR1/3wnvAjAA69HL776OtOO0/l&#10;cWWPW74PwDOn1gt2T70XPLu/RLki/7W9dceveZPeF4KJA/dO7D70CAB/NR7Avvv2WGeeb707mAil&#10;HxgIEYGNwOA47JbVvBFCo9yEBHwkY65QCDhKbV+/RV4L4BOrFXS1vqGhns0bL+/btulGu1h949jD&#10;Tx7yJ8wpd56UP3HqifrhrvyXJx7d/d3Ra2qXO+tPO5s3nPfLavD0b02/uOeuQqH8VayyNPa5gecv&#10;cqU5p3ZcHwa4JAiPATgAsMcMQ1QnoinxQSJEEkCKCAUQbQLRTmYUhCO77Zx4z97nwtsATK0eSXcG&#10;CdF9XtfWrW/JDQ+92e3hCyUOC4y/iEPfGfvzM3a5pzxdXp2xy12Gr2pqzz0e3rn2vLHLVf9xoGuw&#10;e+j0Tdf1n77zuqCknq6Mjd9X2v3c3blu7xEA4UofTFcXpoj0z5jA7CVBngbGm7yONqv+d2mxNIYH&#10;jIGL0GxQUuzI2Tq/GgDYe972gcGzTrtS9I++LdfffYVbKI2IcA947hAoLGNqrxl76in/88vxWegj&#10;l21fli+9pss9/fKfLX699xXWBrYAcjXIdcH2Wmhaj6DWNRVWag9Mv7jntuDIwa8gPfTOesmAt2Vo&#10;RygGrrX6hm4sjDiXKHlcCH8/uHoc7BvAKAgGnruv/Omvf3b2ZwHoUw/AC3cs2wZc8Mb8Jy56W/F9&#10;xpYQOQlSBkxBFEiw+sDWegR6hP1ZPFI+dPhub/rQvQCefLkeuHjwYYIAQYBhWIYQ6ug4guU42GRt&#10;ecu5TrmSv7TntNPfUdgw+CYrV90s+RDIOwSEFQiWYFZgDUAb+OOh/s4nS+/EMmXyqB3n5JbtQA78&#10;2L/rnEn9c84asmGiwD0JC2AGe1Mw1XE4Vo7snrUX5/rWX1wrrfnl6rGZ+/X00dv8ffsfBOC9vCDI&#10;IBH5yyaErRzO5yxRBVA+1e889KaL1to9g1c7a0dv6u11rrDsyYIIHgFVjoPYgMgCSQekGcwMzYAQ&#10;BtN7wsfH9ulvLtcO0b9cuWvZjsM33PXad+a/sPFS51IjFaQLkIq9ScNgw2AOwMYHkwTbAzD2JgRB&#10;X8mb9B+Y233gDqFnv/RyoXJaMgLfeJRwCutF5Jnbz+19xek3uBvX3uB0h+dLHIEID4LCGZAQEMoB&#10;EOUvggWgAQ4JOmRwTeOZ26q/D+CPlms/1I5XLWtG9NwTj5TvGD3PulR0GyRxVKKIxgCbKJ0JNqBD&#10;mNIhEB+EUD1Fu3fDtbnzN1zrV63HvUPH7im/sPdzAL6/YrLt+POSDZSIsrCMsoReimrt2px/ycEX&#10;Bt2F3JmbLqeBNW93B7uvznXX1gv9I2DuCARXQcqCUBZIymi/YQDIiE4ygAkNBDEmDwRjjz5S/txy&#10;7qN69JHysh6cBD43s1//ev9ZYpMJCVIyIKIAP3GUXEcmUgsCFpgZXJuBmTsOJZ6Gyq3d5W7dtMtd&#10;e977a8fLX/UPHby18tSL33zp1dqsFCSGCGY9yIyCsQbAJpI8KBXlIakAiTwJSBD5JLgCjZIJuaw1&#10;jiDkfRziWOjjIIc4DGD6pd5Ld13vRtE98OaujaPvyI3kLrXsGUeEzwDjExCKQcoG2XYs7TTADCIZ&#10;Xe0mln460jwKBnsfr33p6RfLP1pWAD79Ynm5hcfuLY9a9152RvFXjBBxVMuAKC6qSDM8o5pbGAYZ&#10;ARIW2ATg6RdBvAeu3bdWFdf/THWk951cHn2ssu/Ap8OZ6VsAnHRoR9hyvbRxDhHvVDZfLCxzhpAY&#10;JkkDQglFlgSpiGSW8f8QFNmwBmBtwMaAfQPtaWjPlKVvJkyNjwRV84QJ8Shr8SPt8zM/CSCtgn2p&#10;6incpApdV+UGrR2uOgA5MQkSVZAtQI4NIVRkY2sThQe1iBj0JO6gdap+wRrlMR3MvsC3vfmyvmXN&#10;4FZvvqxv2dXXI9+Zu+2C1+V+zt3ERQ4oApowAGuw4Xq+uzZp0kl0F4HZgg41zOxRhBP7oGeVLTz3&#10;XKdb3i1zAyfMIQZHJ9eTTZdJC9eoHL9S5cRm5UpX5iwo14FwLQhbQdgWyFYQSgJSgKQACQIRgZlh&#10;jIkUsDbgQEN7PrQXFNgLCmHF2xiWvYvDUvi+oKwngwo/H5T5W7rKXw498/CJSO+u03pJ5d3TlBX+&#10;jJg73Gc8D0EXQfY7EEUFYSQoYFBqDXAk8QQAFmDD6YXNOsrutgTjxSf97z7wvdkHlhsL6oHvLX9n&#10;hIG89Z0DPwq+deYa+82aDUjEANQc/YABY6LMYzZxxnHsqIQaei6EP6FRmzQISuV/0+HMbwngO0tN&#10;q5g5ZEsivlI4dIPdJa6wuuQOu8uC1e1CdblQhRxk3oF0HAjHAlkyApyUcTlmBLzIeEUkAVEX3saY&#10;SBqGGhyGMJ4PXfYQlmoIS9X+YLZ6cTBdu9ifDv59bTp8NCzzF8Oq+TyWUMpZen6KAdwyuFM+ZWD+&#10;RGt5NbFEQBrEBMEEOAkhbsAmTqC1YqKcGMxR3iKMBLNGOAs895h324UX5ZcdDOrCi/IrYcN7j32n&#10;cuvWC+WbxAAE+waQsQ3ICRBNlHXC0QHDMLRnEMz68I4H8CYD6Jr+Wzb4YyHUsaW86fHdsIXCNXaO&#10;f97uEm+0+52c0+/C7itA9RShunKQOQfCsSEsCRKxlBP1uBslUoWyzmyUCROZEwTBMra74tixjqSN&#10;CULoWgBdriGcLSOYmit4E5XLvYnq5bXjwS97M+YOv2w+DeDRxb7L2BP60ZFz5M1G83/SNf3bPlhB&#10;R3tndSOu1IulHseF85xk6zCYDUwICGbM7OXd/jHx+ZUAgvKPrUxNSFCiL87u4Sf6eniXYYawOZKE&#10;hoEwkX5Ib+uaRjAToDYewJsJqmFN/z6AD4sl5FJMHVLEzG91uvl9To94g9tvS2eoAGegG1ZvAbI7&#10;B+U6IEtFko4is4Ap8Rg5Y5smv2erkiLgRQIxlo5RJkLEQksCoCBdBVV0wL156KEu6HIv3JkKgsk5&#10;eONzG2tj5Q9Wxv33+NPmrlqFP7GYl3/0STMD4L+Onk37uYY/g+Ee1tFHsrqtjOkSZ1UZAFKBwbGE&#10;ZogQ+NEj3ueGtmPPigBwaPuK4A9DoLG9T4R3dm/lXaIrCu6z5EhdmDo3iMBAV0ME0wFqxwN4M8Gh&#10;0Df/CYTPLOV9pg6qC5XDv2F3i5vdfks6g3k4g92wBopQXXlI1wYpGdtzQBSKNjFdwal0i3SvBUAB&#10;iScJkQGgjjxNhPHvJv6dY0BG6TJEAlACwrahchasnhzsgQKcoSLc4VnkxkvD1bHKBypjwVu8OfO/&#10;WdPfA1hQwo+/iE8MnW4OBR59hDk8PRLEBItUKp8Zoq5hYltQGIPSYcw88OD0bStFZ6kHHpxeqffG&#10;Wrd418bz7V8e3G7WMgNQ0QYROLL5YvD5UwG8iQC1meAF7ZsPAPj6Yq89edgalEr/+1wf/5Lbb611&#10;B/Nwhoqwhrpg9eYhXBskJQQBoDAj3Shix8kFkAcoD6Y8iFwALkAOQFZEKEGkthYQAhwA7AOogbkG&#10;4jLA5eh3eNHfOLYhhYx+lIR0XKguBdXrwu7Pw+mfhdtfWlcdr/1R9Xh4XW1GfBjA7QuC8AVx3+Bp&#10;4VH45pOYC89JTIVUEiJylsgwQJHzIQAce4a/5nruIysGQNdzVwyAU1745NFnrC8MbsK/MzZDsok8&#10;NGTANxmgdtyHNxc+F/r65wE8vKiTcdS+xC3oP3P7xGXugAt3uAB7uAjVX4AsuCAlIYgBBIjynAkg&#10;B0wFgHpAog+gXoCKAOVA5MSAk3WJOC8zhhtUNSEE2AO4CvAcwDNgMwXwDMAlUJwKSSTAUkBIAcvO&#10;QRYEVJeC1WXB7i7D7q5cbI/7n/Gn6bXlGfE/ALRNkTr2nHxsZJv3LrD+JOZwSSK4LbLATCBFYKHB&#10;YBATKhPQx1+Qn73s/MKKZSCpy85f2c4IlcN0a/VI+G57rc6BOTpjw9C1EP50DL7ZcHcYLA185Snn&#10;A/l+/ftun7XOHczBHcnDGilA9uQhHDuGTYDIb5UAFcBiEBAjgBgAUS+AXCzlWtnH3PR/Q2Qz/pGR&#10;uqYcQL0gGgE4AHEFzDOAOQ7mMcBMAFxGlJdLICkgCwrCzUMUCLIooQoKVrGiauO1X4MVXlCdkf8Z&#10;wL+1lYR77GcGN/vvQWA+g7nwIhEnyaoCgWNEajAkEcZfwGPPPV/7ykqev3ru+doKR0etB/t+zA+e&#10;MWDeYDgysTiMwTcewJsNj4aBeR9AC4KvMpvrhgg/lOs3v54bcOAOuXDW5KGGi5B5J8pSpiACDkuA&#10;ugG5BiTWA2I4ug2VAV3W6fhJVpKtagNkg6gbEGsALgF8DGwOAeYoYGYRFc7FRHevA8oRRJGg8oBy&#10;BaRbe7V9PLy9NqE+BOBjbeOdR9zd3etqvwBf3+HPYntUTyAg8jFxbgy0B+x90ty+8XRa0QZKauPp&#10;Kz2tK6weeV7evuUsegP1aOiQEc6F8MZ8+DNhTfv6g7SIzVcq5UeUE/51rodudvsduCMO7LUFyIF8&#10;RCCTiYlEitSqGAXJTREQqBgDL7HlFgIdN6neTF1wS2nY7j6VqngSI4A5Ctb7AD4cARMMgoBwJGi4&#10;COEKCJcgbYK0vTWWE/zNxGGMlGfkH6NN/Hlqxn160ytqvxJ45i7M6G4hAygQyCYIIswcwoH9e809&#10;K3z4UPv3rnzvnCPT3r2nnWs/M7qDX1GtRXafPx2a0Ne/B+BfF3ruxExhc3d3+DG7h96YH3DgrHFh&#10;j+Yhe/JRgVCaYG0DYgQktgJiYyzxZAyeoBFEzXgino+/LAXITfhqVbvZ/NyUqikCYguIBgA9CDZ7&#10;AD4GwAch5iF7XZBLIIcgLEBapFh4f+jYprc6o34PQMvuAmMv5r8+cnrlV+Dpj9MM5VlKyHzkAB14&#10;nu8953x6bsUBeM75Kz+v8BzYh/f9mO8aWqNf4ZU9+HMBtG8+bgz+cqHnHRi3zxgeCv4x1y9f7Q7Y&#10;cEddWOsKkEU7dmbii4uKgNgEkmcANByBEbFU5Fb2HbUHJLcxCWPiue3jEIUS29uNXYA8AyR6wOYF&#10;wOxvlIauBWt9F4RNIIvieLT/64ygWJ1UH0SbxuhHn839y5ozq5v9qv4jngngAPCqVB4/zJ/FKlhq&#10;/LBeDZ8DkxN0x+Y94QcsOxgIPP0wCH+wkAE2M53bPDwQ/lOxX17iDjpwNziwRouQuRh8HKd7UT8g&#10;TwPJrQB64sP2F0LSAqr0J7EHm8RjFrhpbbEAMAySDpjygH4B4CkAOvLUbQm5pguOlY1D194LE3r7&#10;D5hfR5t6mmGDv+RAvwolvNlShKMH5AMHxs2qqFNWB8ZXR2eEYUc8Pn1Y/1vfsHm9IXwQC9SEVEvu&#10;iJMP/k+xX12SG3LgbnJhrytCuFZG8glADALiTJDYEHF6iao9KRy10r9YAmjRQkdnb1LTwwhAASS2&#10;gmEB+lmAJyIQMoGUAIbysEVd6Bpd/ZXBKh9Dm0TSY/tFeXiD+dXQN9+sTOqN40f1rWdsWh0lseqM&#10;Taulmbs2s3P6lkIPvgZQ2/m7kzOqu7dPfzTXL650B224G1zY6woQroqdjbhHixgExDaQGI0pFa+x&#10;mJzaACTFGS+AP2qyDWMplsSH275HE61jmh+TvWGBaDSOoj0H8Fg9QiMIciAPG3EWuTYYCb3/NneE&#10;DgH4ZEtH7YjcUxgJ/odXNu+3jf7aKjl0KNvo1fJZEJK55/AhueAH6hk0H3L7xNtzQw7c9Q6sdXkI&#10;V9bBBwGIAUCcDhJrYlB5GWA0q8AWth83g4Iz99PS7EGg0SZs5xm3bjaT3iaxBkw6yt8zExHJTYgS&#10;JfrzQMBACJgQlvZrHx7bR3vbRYryg/inWpUfVTJYNeOxlJKrpzmRkrQg+FSOf7p7gH7VHbDhrInB&#10;l7PilhmxBKJeQGwCaDAGTW0BlZr1SBeReidt93E793gBDU2Nr0GDgPABDiObkE2URS4F5FAedmCg&#10;A4YJTF9P1fvI4X24FsCB5rfZ84yoAvzYMhblLX7ms1Or58MstArD4uy+PvxPd9BWzrADZ70LlXq7&#10;iXQqAGJ9Cj5mr4UUWsik4/bg+ImdjyWguqHXTDMIBwBZBcIgcng5zhi3BNRIHo5vYHyDrpo+e7im&#10;//TQAf4FrNLWJw0ADPzVD76eUavY32s+nB+U690hG86oC9njxgImBh9FPB+oPz7IGHwL+Q28CNJ4&#10;AU55ocdyK9uO2zghbfDJTfwhEYABgCpxUoNXfwlHwRrJwVQNdI3RVa68e7DMDwH46KoH4GD/6geg&#10;cM37c710tdNvw1lrQw04EQ3BiVchAeqLDohFBL6sim0QPNwGhO1Y5hOUgrxEVocXkJStbEtOUrr6&#10;4zDeeDycJMKmKFiw1jhwKxq64qC7VP3dY/vwdZzi7lY/MQCr5VWOvgG5fW0P/YbdZ8EetGANuhC2&#10;jHP14oMRhehgoBrB15JEbnG6LzkR0CY8RxmqhduAkJokZbMkJRWDsAJgLv1ORATZ48AeDhCWDXJz&#10;4bqe2eC3J8b4F7CK59apMFi9M/XEsCX7u8Rv5/vEqN1vwR6yIQpWRpAxoqhGNwA3yscDt/ZAaQFb&#10;r60NSCfpiSxi5zXzf9nHL8SPp89zolAi12J1LABiCCUh+13YsyHcOQuFGX7X5IR/G4D7Vi0ASa5e&#10;AOYtcVWhR7xL9UrYAxZUrxPXZ2QoEcoByMfZyHoBp6Mpntsqfgtuq4VPyDvO0jHUQi23fD61uQCy&#10;kjp7OwewGyfA1glFUbBgDTpw5jTcGeP0T5j/Mn3YfAs/QbnqKQWg8FfnnBA5pKxCnn7Z6SHX7lWw&#10;+u1I9ZpMl3pYgMjFhTaZ8Bq1UrvUZBc2d7pvdcitlFf2NZZAqXAbFc1ND6aF7MJWwCSAc5EqpqCh&#10;U7DscWD3B7BnNIoD8jXlCf02ALesSgBazuqUgMx8ea5IV9s9EvaADVm0MgZ5fAjCiUBowvY6izPG&#10;FmVI5Zak84nwfy0cFWr+P4msZG1Sam0OMBbnC6lJusKK1LEJGxwssiVknw1nOoQ/qOEepfcd3uff&#10;gVU4yV1NTq2+LvnusC0HCvSLVjflrB4J1W2BlIyPJgGQAsGK6ocp5pKIF/ZAmVsDiFvk+fFSANgs&#10;LakFqDJeLHGjE5KV2M1quhU5zi0AynZsC4apJCUiiIIF1atg94XoGpCX9E9abwbw2VUHwP4ua9UB&#10;MLBwUbFHvNnuEbB6LIi8atJGkTfITCAE86XPYlKrAQyL4WoRu6ylGm5jQHJT7DgrEZtfi9tcQEQt&#10;fCgJ4jAqI+W4+MiSUN027N4A7oCSuaP6Z8cOBHdjlZHTam46XHUA7F+be4vTI3qs7kj6CSXi+lbO&#10;hM6iWlfmoC4wqJXX2IYobkvLNNuNL4k9Md/Oo6aYNC/2edvYnhQlOXBSCJ+oYQHIgoLqUbD6Q7i9&#10;4lJrDLsAPLKqAGitsnnV7rpcX1eXeqPqElBdEjIno+02JiMF43pcDppCVljEgcD86EdbwriNRDqZ&#10;7n7MrTlJalLR3MqGBeYXw9efmApbjqc1ESFJyiBLQhUV7G4Jt0/2uHl606oDoJunVQVAn/VrnKK1&#10;UxUFVFFBKDH/ANNNbuVwNFEgC6GRsTiamiWqwSJIbJfA2oIc54XqS2hhh6fdh83Or5MEmbegih7s&#10;Holir/XmqcPhXwGYWTUADCqrC4A9661rZAG2KggIV6a9TBrPICkywvzYKbUzCHlx6YilSMwFgLEk&#10;EYymsCC1IM2pvR2ZeQHmFio6fYiJOjHYArIgYXULOD1ilz2pXg3g/lUDQNtVq0ccD9u9+TxdovKA&#10;ykuQJQBj6jkFlNjhppE0JoCJ0oZAOBGMtJUkLaRRc83HUsjoVhk3rbzeNAyH+WE6bkUjUuu4c2wr&#10;R32IDFgQRE5BFgh2t3CsHC5bVQC0cstPRMt8uaX+YqF2KBtblWND2FHdQ9TLhDK2d6wHs+ZQPDgm&#10;AiFaV0tmPd9Uk8UtgtHsFXN8bz3LOX1J5jQJJ/3zQlKOW9iDfALPyYbu4guAuY0dmfTuymSoEQBh&#10;C8ichFUg2Dlz4eQR4SBu+D6y3U3fsVoJFJZ5TosS3XKZpNuAi7mp13Nlpsoa32xp95M+R9rUKxyK&#10;AJhokqwRTgwmath8yhxuCsJmm4y4biI1qEBOJR43oYGb1GNLgcOLOx90IpLXtLAvOTE+KfN+nMmS&#10;qWd7N0rG6AohRZCOgMwTrLw503XVRgDPA8DMXj99xeJp5hpIZ5fMF+/EEnoVviS4yK3rPbVOBQob&#10;3T7/KseqvcM/5L/Oq+I3oOgb8x7n58kW+pXCkRAOQSiKumNlcZRKsIzoSSQbUXZ2dHzolHEk2/Fs&#10;1CaqRu0dESxVxVMdFA33tivfTP6SeYaJvi+38qgJ9T1KBStnJGX0ICKCsAnSIVgFrCNlzkkA2MBA&#10;5IJA5fhDsl++txbk7g+r7t022Q/iFEZQlJ3vfslflHtsqSxcpNzgBrtYvdaS3s7gaAVBGIBafHEA&#10;kEIUlRXuEIogLIoG/3HU046TjlLUxESIrF2YsaNEYqDzfCeCFstSaUZTm9hw26YIixPXS3a+GyIp&#10;aJDWKTizdIzJCt9MDQwDpAjCIUhHKGmbzS0vF4Mfw9eTDmobezbhA2zxz9XK+qHanH1XULK+COCF&#10;lxyA7L50NqBHYgSkr+pfH7w11+VdYcEfoCCEng0QlA3g4ygM72v9bDMiFIakRZAqtmU01/FCWQ46&#10;4xkLboq5xu1n5+XRtbKtYtW7UOJAqyRmblaPvGACal2qNSVELMbYzAN5BDTixkQKztqV2VGy2TC4&#10;jFSxsAA3x6NtuM8yAVMc8AA8A0v6rtUXvj43ELw+CJznytP2/bUZ+25TUw/hJYqoqBA/ORNNeT4/&#10;P2iu6+7xrnfc4AKLQoiaBryoe7yI+zuD+YgQ1LLeV0KPCslDIq76T1vzNqkeJkKDP5LFgaB4pCqn&#10;0pKpKVnANHJ6vBCxTE2HCICJG/DbZnAw5sWDQe2FZbYRe4PDk/0bZ03Z1IRlTloZUzrLmLjuDdev&#10;DYKQgLAAYfPG2kxu3jDqIpWnADwFw6fHigQICLYKYeXNNrcn3Baw/sVayflW6Yi8kyC/DODgT+YF&#10;n6QJOHkk7B/cZl2R6zdvs3P+6x3LXyuDEOQbUMggQwAZMJuoJSwzmHgckipt7PV10qIuUlTffU1g&#10;wU1gY8BErcYoS/clgkhEuslQpMYTGwpEUXPu9DiiJ1Fz/iq1kFJZz9kkz00czxb1vunrL4Go5ia1&#10;OU8F14dkUzPfnLUHY7oq+VsExGykJK4ntgRImLW1qsg323aHn+oK159d2ocwahYvCCDJ0fBtQxCh&#10;gVRelzMQXFsYtK/1qs6TMwfFfaXj/HnHsb6Dkyi3U0FwYkQ0g3bmR/m60U10Y6Hff6VFgRBeCKoa&#10;kI7UDFHc3lYQDCX2CAOMSeWQ3/p1xTqhNKWtchNVogEW3EA0J/QIJ45H0kU3GygQAJsWHgM1ebwt&#10;1FzL+9NElqbnMi1AA1K94WbLB81PimDOuC5Z26+hE3/jxPZ0fw3q8WBTd74oblJO8VBtKXnQcYOu&#10;Vs6FAUrGRAAkECj+fqlGYYIJAFsGUAXemT/L2ul56v21Wf7m3D6+ozbDX8MCTTTnAdAvLw5ax3Zc&#10;awivt/vCd+R69RvcfLheGg3yDOAzyMTiWkYjAeoZRyajxhgEtB0DICzqI4F00jibaCOJKFYU3Khu&#10;gaipeTrmK1GndUKXE2CCIlWVlUMCLR0C4kWvwBO6XJlbCFbKqG9ulHyI9y9Lt1DGq02SMrgBiPX/&#10;Oat2ud7onWNBzQQIhZ5iEX0AjrRQRWEiQWE4HWxDhqOuciJqkc2EaNCh1shZps8ZDt9aHFJvrUzJ&#10;x705cU/tkFjSKDXl5tunY1Wq4fquYfnm7k3mZrtbX2YpbQtfAxUDYQAyMVkrYhuFkg0zqQGTnbQQ&#10;t3tquYIwzEfSL7qaKQZdSqlQU6gqsZWyzHPkOoOFqNMTIrLbOOP9Rvwit2FcMryhafK823nNbakY&#10;SrNTUgK7mX6Mm6HPU6n1PWtUxSZj36Eu9VJQJlObMo5J4iETR2qVga45zx8G8PQ8YZM8y0R7NI8P&#10;iM0ZkrE2oDhPRDMENHr6eFfYK3YFg/KXvGn5lbFna7dWD+GrAFp2CFBTL86/3xmxdvVto7d1deNt&#10;xX59liIdTd+pmjjwENMkWRsmPfD4ysl++/pht23HaksUsmdPiUqBSVUtZcVInZuNbDviyNthUc8K&#10;EQwYkarkrBhibkxcbhCBpkmqija0H8+/3fDiTR73vEoAzkjJxIZNpFzW8UqiLnVTJpV2ZGJHxERg&#10;ZtPoCaeY1pxoIYDZVYL7WgcDmhxAzpg/GUco/UUAMibI2QDsGygDKKlHnEH8tNOl3lXdKr45c5D/&#10;tTIefqFZ6ipVjH55+BtHhi64bOA1G3cVb5Jd4VW5bjMsAYhSBDQhY20n6i5aNAWAU7VR36l2qopa&#10;pl8bnSchg25kpAUbE08jylz9yU1RzwvkxAaKIyBMcXOieWG7RELW/cx69tw8ziQ62EQ6GbTvrtZK&#10;MzclOtO86EUjWFNGqAE02ZBfBMrULDFZVZyMuU2kH6f5Gsz1cyGd3GYQGeFQvvWEIvJahAtbVO1x&#10;o3mQKCamqF7baIBChoNQ2YO4KtcrrqpM0lPkq3uf+fbMZxP1rKaPR07pTFUPyWpwlVuevUnBWKIm&#10;AFsClgBUZIeRarKhsgfBceTCtA7U80JsBxkisIo65HL6w6I51FaPSkVXaizpEpVs6oBNZrNQNo4a&#10;Z4ikIEyex43hLyKKhDY18XzU5otQG6eF5mnQugThRvebTdODMrYhpbYdp6qRk8EzXH8uZ2zC1MRI&#10;bMJ4HnNMhwHGah2DjTsucNZM4Vafv9EJo9ixIxNdsMSRQDCBgalqWIFBzjdn+ZMqLyv6xykAZSVy&#10;Ql6zs+fpsR/7v8FHnX/qWyPe0bvevDU/aE6XXQR2BNiWMBCRJpMc82G89EyT6KGtDU5RMxyqEkys&#10;KrJTkigOZSUqPw24x7+LjK1DDBIiVr1JgkPdEQE4Iz3bZLRQxiloEATc1uOtS4NG269l1n/y2qbJ&#10;4+b5SM06Hal0Y07tQMo6C1z/m8nah8nTjYkmZxqGMYSQ5lpOnzctCPFELVPjJIrY3MkK82RqaDQv&#10;D6EGqgw9bUz5MB48vNvcaqrBvTmI/fVYcFA3cHL9tg/wI1Nj+hGvrD4m9vANPWvM27vXhK+2+zQh&#10;L6FtEXlDChCSG9iNVmWF3Hi/294JMSXHUDxClKMoiEjGmyXcX0zDZMNuOiGc4/cznIkPJwQtpWo6&#10;NRypmc3O6tZmG47mucgJE5gmRjSoc26I69bNy7pTlnq22aQCng/IRO0mtjSbRkDWHZAYcIYbEyg4&#10;bmGio9cy0XxgExrjtebeRf2bi8YLjo2IaBkT293p946+l0k0V2jAVYY3gRlvUny1NG59auwAf6UV&#10;7aOMbi2USrPYDdBfHjuM/7tuo3jDwDq8S3UFr3P6MSAK0URGLQkkuT5XjeeTsNRw2Ci2A6BhVFjH&#10;UyZ1BMCGdKtEZYoWqXZpa7bIKI5ui3j2HGJCnOqSkBbnUjjpPtWclNCclLxoBR5nUv14noeb4r1B&#10;AnID38fGpNKOTAaMqVREHYDMTTHkGCCao5nVEXvhO9Jq4xBqVd/zxBumlA7jMD4DjtkFBljryC7V&#10;DH8WqE3Rs9OHxecrk/LunCUeBmAGR9rQMIMjiyakzoJxx9QRcWf5OVzUP0LXFwb8t7gD+mxVjIrz&#10;SUWOQcKtCc0ZI5jriQRRD43WWhiyZIIAJuTUXklqj6LQWiYAT1QHFZqiIEk6k+DUNiKq+yXMbWqD&#10;srFkZJudcmN2SquMAVqAMGzg5TLqnRrpGJOSxpwCsg6q2B4zJravOHX+6lIRmdzJVpLUxJrFwBiu&#10;hUHriBSAiA4TiDUHpXvOGR1t4jG6ZBjsA5VJ1Epj9GBlQt0ZhHQ/gL1CGXi88BQG5fES8w812Mrj&#10;u3Nz/N3SpP13/Ly+amDUvKMwqC+zuk0PuQasoqvDxGNNKUvPCQFB6A99tlsFsn0vPOqEDBMYcFB3&#10;QshkyFuqgy+VeEypU5EWn1FjWJZjrzYupEvjxlH+INdf3LRmolt6uK3KdjN/a84TnFeS3BSvTSUV&#10;o8HDhal7wBRLRJPMUTaZ/UnDbo1UTSrFdKQaETK05qm5OTHW6pi7BfqSBuiR9GuMqKQmgzYIKwaV&#10;Sbm7PCG/PH6E754Y4weA8IQmH6mDe06qMP0QgFuUsD49c0y9iqX/lsF1eHOuV++QeRM1KxD1q9wg&#10;ntBDNMTa5FsBUAGHTcC+8Y3NoYnsDRO79bHoSorhkNiFqRdLKemcgIqQhOoiaUhJlCG+L8Id1cts&#10;RT1MkTjYWfMvGyrmpo69zZg1poVubkgmyPJ0XLf+mRuMeUooLpP5PyXcqO6sNWTBmHqFXfKVTKSC&#10;TcgIAwPWNCah5kVBhs+uuABtIBnF7IwhUEh1m5U1WAP+nPSrk+ohr6TuPnaI7wfwHEAY6D3x+iI1&#10;0Hvy6VhzszoA8C1Afotq4m+FsN/UOxS+1ekOLrWKQUG4gKaIE4IgMNFaozEEYHqegA1xSAc4zgGv&#10;S4LhEHWbj4D4viSFKnYosoayqYsmNpwmsTJTSiYnXjETR4MCE/tUZ5zcFmZfmkyVYofTpFduiuel&#10;PF6zlGxBvSRqLbLvDEc+JzeG2Uzd5oPJxIhNHcypTWmiFybO0E8mGgDOgYEJGMR0tNDtz48DG/QJ&#10;ia1RPiVFjw00yBA4EChNiQPVGeur7Nt3zk2pBwDM5X/CvgYqb9l4KZb2sU8DH5/YZ/2T7dqvcYr+&#10;25yif3W+NzhNKBNpTUl9IGxAi6TUIBSHLV9PGN+s076BChksKZN4EB+qaXIETOwEJbo2AWzqCTc9&#10;PnFYBNWJQpEtqajTPo1JCK38jcQDpXSaOrdpiJnk8WWzXFIpqw2YDWdz/ajJy80CMhJG0Vhbyjq9&#10;DZGS+uczHEk/E0QMg1+Te4FAt0iO6AOomxiAZ8A1gvGVqc1Zj8xMWvfMTIj7APwoKht5aUpHVM17&#10;yYcVVisBvoo58dVq1Tmzp8d60+CQf6N08RqJmsPM29GyiztPhSH2a4/PNn7stWU3sz5tPjaQo/Si&#10;1KZLvOTEEE97PcZ1JKmpR2nYgUnEdmFchCQa00LmdyCYn+qXEi5ZcCWOjeGWPguaQmpx7Juy8eCE&#10;80tVc0YachKBSBwOzjohmYBLAnTN4IBhfIYJGOUqWo7o6jK8TRD6KSD4U/JYWM59PfTcu/ya+IYA&#10;jve99MnzUH2nsCiprxvPAnh28rD8B+nal7MxP8Mm7NZazwvWWW4QhL74nvFwrakZGJ9BFiPKD2ys&#10;g40CIJHbn+q5BHxJNITjGHKqLDOxvPTHZPxbiiMpGaOuiYZJbb46C9iYYEBN4bYmG7CeTFrPZsl6&#10;upRJKiCjYwmfud+g0QCNAcctMqAT15qZgTACn65p+FXMWiR+1PLAQj4rqNhP1Uru7dD2vRY7j0WM&#10;36lrZK9oGVr257swC8jPT03Z90lSI7G7oOfHhPF46HGga8YyvoF0E+eFM05GUhmHevJD9r7EjczE&#10;fJGVhMh4vdkQW5aKSZyXVq0yqFX2PC8YA+ZsvLxBVTaSx2nSaZJNZNAAvGyiAvP8VKyGIvds6C5g&#10;aJ8ReoywJl4MAzkvC6ZrVFLg0T013/4XQO8Dqoh+Tu1S05XlGxdLDoxB8UjbaEhp+onAFwd1zWwx&#10;NQ3OC0DWnQkyyBQhUUNVWBzwqPOFDcENnl/QlIBOR6qcKaPnKUvHiDTlizMB3iQ1KVs03xCWa8ik&#10;4nnZzQ22muE4tb6RC8yq3PptNIbsmkN7mQZFaUJvaKBrGmGNEfryR2Az79DnDhoG8ORyN89SlcOr&#10;p2chuXwg9PFkWKUtumpgfA2h4iTVpHiImkJpGcKRYna+nv0CQJgG9Z0iw0SeNAlKPeY01JfQRjEB&#10;2pxRmk3jSj1kzqZ5caMz0lw0ZJrjwTHHZzJqs1mSZWkbbkqFS8nuRtKbOKZffIauRT+BJ74rpVk1&#10;XUmVlGbVABCBDLXir/hVvMWpMizPwFiUAURcw0HZyUhJ0mhTgh9lSN2sA0EJq1+nL5oJbqYofSlR&#10;w0xorDsGmlq6MAxnTcDGKAgyCadksvmAJq3naIxaROChbMF5xhZsjsKk9mRDbmKcGBAytKehqwZ+&#10;hY6UauYBrKKlSjWzmj4P8gpftat8OKhgnV2NKvrT5FeijB3GmbYc2foQSqviomwqSuPULJKctUw6&#10;DMUFToJjBo4zCaiZvn5oLH7PZOzV60yyKVXUTIck0Yp67JbSmC4a1W6WbslKu4xUbLQnkUrFBkrG&#10;ABwY6CojqDICTz7ILFbV3BDFvLqalLPWz4Yevh1UzDvDKkHlDYQUdVU7L0eeM8kImRT4hOtLSgPS&#10;8oCYbqFsTE1EgBDx++h6i4+0LiWx+dLM5YSjjF8r8WibMhXSyEeLXD02yNh4GfuuiS9s7AlTByGl&#10;TSkbVXJKbocM7RkEFUZQAwJf3NeV41UlcVRXbpU1KWdhAl/f65f55qAEsooCwiYIQfUiJMpIpiTy&#10;QZls7LSlW1NTozS1K5sFwXWaJ26CmUg2zmTCcgPuk6Ji1EsCuJmCydpljU4E83xuL2vjUWPZXWpK&#10;ZJO8YsVfryVualjDhqD9SPKFVY1qiXYfng6/jlW21OFV2KJ3bS99ya/ih36Zd9llDelE0k2oTHQj&#10;9WyzHYqSeuE4LctwA0izobg0TSytG657wWlkpYn/yxhYdQXNUQsRzhqIGYA1eMFpmlUjFdOcksVN&#10;ki+NsLRoNdLcwiO5bUID4zHCikFQAaoVecdI7/wJmisOwJHe1TcnxADj5Yq+xS2LXUGZofIGpAhM&#10;IlMKEGcdU2Lv1akUbmhYSVGdSGI7ajTYjsgmt1K9tqSeVtPYhiutx2OkRDfFjHFaKpl4xQ3EsElp&#10;kRScaTC4XvuRvDZlnIm0BqdF5s38UEvs2wSMsGoQlA2qJRybLvPqnBMyXV6dc0LytvlsrUy/ZM/p&#10;M608IG0Z5wAi9ojrtl4U4OCGEs20FDOTNZNKsSTHMKPGOeMlJ68XOdT1EtAm8w4gjvNdm6VYEw2T&#10;UcPcIgzXUMfFmWJO5oZquwYSqGUDy/g9QobxgKDCCMvA7Czd0Z03T61KAHbnDVbnkod9H//olfh/&#10;WgUD5RJICpBFUd0xkGWlU2mUqW9M8koaw3UZqoZh6hnS1Ojt1ts4ty76nQeWLEGMbF1JY3ZzKzux&#10;wasFNzgbSRZOgySlpgE8raRfxSCYY1RLNF3z5CdX6SFD1Ty5Wj8bLKlvqVXxHmvW7FRu1NlJCtHI&#10;6WUPcV4T+caiKc70FeR53GA2SjI/hJdlZereLaHBQ+AWqnShgiM0kdQN9SNo6jXS2D2h5Vy7WPrp&#10;GiMoMfwSozwr/7Ho8GOrFoDFVTqqK6JkxJHAM3/ql80tVomkcgmkDERiC6aHYJoOInJGGmqMMrHd&#10;xrBcPXKSDeU1VAy3mqCVjfNyUxeDbC5DKt2yKTQmBiG1aFZJjbkQC82aaBaCGjAeIygb+CUDr8zP&#10;V2v0Eazipao1Ws2fDzmFz3pVvEPN6RuVG7fulSbj2Gbtuzo6KBOy4GzWNGXCcsj2kanbjvO831bT&#10;H7JpV82Fv8hKQa432Gxuv0HcNMaL2gNuMTlh6tLPLzG8ksH0nPqwcsy+VQ1A5ZhVDcAgoACgP1Fl&#10;81rl6H7pIGpgmeTyiSZJ1VAolJUwnEodBpqalrcux2w5xaO53sNkM6E527itsUe0yY7pSp5L84xK&#10;mjeyixetu+ZY9YYVhlcCgpJGuSTuPz6n/hmrfKnjcwovg/XoBsv7Y1Uyf6EcgpTxgGa7qXmQqatO&#10;apJYdVeCMxxatucJpbmGLXyOeho+Z5gRauzjQi2nKbUeLkPzevA2XiwtuwWjjTbWDO0xgjLDn9Wo&#10;lOjw1Jz1e105rq56AK66SEibVQ3xUVnBhcrS7yZFgDSwRRTcJcHze5BnuxVQvUVHvStM8xRVbhSA&#10;3KiCqUFKYX41ZhZwC5htLXzpOn3EJzHOJKyDz5vT8Cs6rJbd3+3O4wcvh3NV3flV9GEKREKFDQOx&#10;MrSMX53T/0VVzE5h6XOElBCSoaLBmalTwm3pkswvmSaQjRIpw7W1qvGYZxwuDSTzpBqa1PwJdDhp&#10;AJ9mcACEVcCfMwhKBlPT1schdEvSeWij3bvnkFwD4Mer5sxnX6KipJdiCS+8YMjF68D8F2iRMV3s&#10;FfurJfGbVkV/Wkg9JBRAJIAcRSCUWRnXeFrM84697TzyLIVCGek4f1hgW7RhKRq0obXhSYDP+Ijs&#10;vlkDf06jXBZfm5xVf9juaWss/MehQbXrwCF1M4BVMSha1Tx31QAw3xvcmCua3/LKei+A21o9ptCN&#10;r/o1+euyEn6cJBWJABsEGU98SjJd5k1jyHYMaHYs55lp3DAcmubxvW0GH9LSJVmzjbq4BM3YuSZK&#10;Mg0riMEXojYnfzA9lf+lgoXjrV5m9Cx9kbToN/vXyNyTB+SFAB5eFQCcMauDiPZDDL1mq7w2x6Gj&#10;A/5jo/kJAM+2lJQF+nSppPqLQn+EAAmWsMGQbiQJk7ayaGo8SY0s77zzpawDQa3n89KiiEJbyoSW&#10;KBnnPYkz4EvUboXhzQH+XIi5aX5+/HjuvQC3nOOx9Vw9JCR9RDqyqzgisGGzddOqAeCGzatjYnpp&#10;Tr5xzcbgHH/KRlDlbX7J/7AxeA/a9JXOdYm/rZZFHxD896RRtM0A3Lj/fdIRlZoMrWZAthhaRA2M&#10;CS2mZZeEKDpR4DW631F+nwZMEMV4/TmGNxsiKIt945PueyFMy37MW3aChKQPqZx8ld2joHLA9u3q&#10;hse/bv8VgBXnCFXt8Mp7IY/uLds3vk3enOsKhfEtuH0MGHOdXw4/BOCD7Z7nFvFH1ZLlMwd/yIZd&#10;NhK2YaicAKy4ibkAGhvGNCKNGlmYpkbitHQumNtjkRaSau1eK3lM0uRJA8aLJF9tzsCfDVCeoWfD&#10;Wvf7+3P4VlvgC/+DypEfcLos2D0WyBLoHjJb8yP6egB/s+IAzI/oFQfgVlKXrN3EVxgmyJyCE7eS&#10;APN/9Kv6IIA/bwvCLvyv2oyaYh3+L2PQq0MBRxtYuWg+GmScyCpaMMxJhRvNHyVHi4FjKYKwuQkm&#10;Y2m8XqZxERvAhEmIjeHNRQ6HV1aPHp903w8EbemWzefyu5Qj/sQqKmH3KMhcNH/ZchgjW3DTHZ/x&#10;bsECkwuWBYAPfsdbcQBe8SbnpmKP7tIVgrAlFBuwVmBtiJk/5Ff1BIB/bPd8pxuf8GasqVAHHzah&#10;2cihhAkFrAKibGorY/a1SCxNsdIMFm4BrkXdWiweNuPFwBdlThsdg6/G8MsMfy6EVzaoltQXg3Lv&#10;r3Xb7We39e2ovl4q8Zd2QblOj4LKKwgpovbDBhjdjIt71+FyAJ9fUQD2rltZ8PVZ7mnbdsi3AAYs&#10;RTRKwFGw2MTNt7nAjD8PqroK4Nb2IOTbJsfl3jAwf2aC8IrQl3ACCatgYDkAWfG8NIGmks4macVL&#10;VJWLAbGhEXkb8HFr8EXVbID2GbqKOLFAwyuZoFp2/tqr5v4UCI+3e/vhs4LLlBR/7xTUGqfHglVQ&#10;EEoAUoBFBEC7YOwLLnBufuRr/n2teddlAqCeXtlkBPus8IauAbHJ1AgsBCjOd5OugpU210Y/GH8T&#10;1jQWAuHAEH1vYsy+mXXw27Zn/oP22LJrErpIsHKAdGLSOm5IRCI7F2Jx02zJkmypjgWaPNxE5fqI&#10;ohtVhj9n4JU0vArtLs3l/xDAP0O0Lx4f3kFvV1J82C6ozU6vBbtLQVgSkCKqr447joGA07bLN+1+&#10;Qp0LrFzURA0OrVwseGzK9O7YZd8kJCME1afyCAKEgIIEjJUc0hCAjwaezgP4h3av2T+ixwHxW7NH&#10;xGOhH/7n0NO7wpqAXRCwChFVI+OeMyI+DMpKw4ZOqZzplH+S4GsXlss2j0z6TQaI+L2qiVRuyaBW&#10;Zvg1dVupbP8JgB8u9FajZ+MXpBL/n1NUA05PDD5HRvsp4yJ8EVEEhoHiAA+OblNvX1EAjm5bOQD2&#10;z8qr1m3EhSYMoyZEMZNM0GBNgC0gWUX0SqTaBmgGfx14un8hxwQAetbiMxMHrX8LQv1Ljof3+lUz&#10;ZNcAOyegcoByAWExhIqmSKaOchaEnM2SRnYS9iJg4wVULjdkL0MDJmRoH1HrjGqUSuWXgaBKPyhX&#10;rY8Eof0pLDIIcPRs/k1liT90ulTRjtUuOZHaTcAHgSirnETUWlEanHGO89ZbP1H6OwCHVwSA318h&#10;J+TodKB+6ud7by4UjfJLAFSsfkHptCMCgWwBgkrzRQShiFl8OKiaUWb+72jR7DIF+CjvB8Tvzh6j&#10;z/sB/1pQ4xv8nMlbOcDOR2pZ2ALSBqREOgsNQNptIZvhwpyhdU4AgMRN86aTUQZBTCp7DL8apVP5&#10;FYZXEYfDQP4DjPyYI3HQke2x13069RLh95UtP+h0KTi9NlRBQSTzXWQ8/jbmRSMgxq2UDdC3FjsG&#10;NolrAfz9igBwYNPKVMUFtrpwwxnyKh0YkBQp6RsNFsy0wlcR9BQjqg1WFNkzIvhgUNFbjebfwSLB&#10;9e5hPDx7jL5T1XhD4OPnVZmv9V3utvMcSUMHUA5B2Ih60cT2IcXqmUSjp0xt0laSVK6GioC0q25U&#10;q2tChokdjNBHlD5fi4AXVMWewLduC3z16cXULQAMvALbhcCfqpy8wem24HZbkHkFsiKQiUTypSGk&#10;yAlJGztpQNmMCy7O33zHP8x8CkBl2QG49+mViUlffm33Owq93GdKVK9yS6caJdlxUVdxkgAcASEI&#10;loo2lSQAgRv8kj4zDM1/A3D7Qu9XGAYD+DKAL5fHxeVezfyUVaY3KMdsVS7BdhnKiRwVaRGEisAI&#10;geggievRFaBFrDnbOSNufpREMBIuL2CEfvSja1G7tKBGHPriCR3KO6s1cSuAZ5filA5sk+8gQX9k&#10;FeV2p9uC02VBORJQsaefOBzJFFNBUcfZ5KqKLzIdMtafri4956zCpfH+LC8AzzmrsOzgm5jSG888&#10;176eTACSIu4paUCCYdIuAyIza9KktwVFHdtskQDU345S+OkwMFcHIf4CS0g1snv5AYAeqE7QVlnj&#10;y6nE1ygLr7JtXq9cQDkMYQHKisfcy3hWnkQ6czcRdVlpl0q8OGzGmqHDuEwyjFRt4DG0B4S+eEGH&#10;4tuhFl9go74N4JhagjKiorVxeET/Hmx6vypasLstWEULZEfSTaA+zDvlLUkAIuIAiQBWkTQEC3Bo&#10;kOsy7uh2dfN9n5n5yk/g258cAB//QXnZAbjtVbnrekZwBlfjFmkUT+UWHM8aI7BM7DARtSM2JmoM&#10;H6fiS4uQKwCWJlS0ssqBfiU4OI1hnl3qJrr9vBvA7toE3aID7PBrdJEs89nKNtuE5A3Kwgap0Euy&#10;LhGFFIk2i6QwsmoW9eGBGtAhg8PIuw0DOhwG9LwJ1ffZ0KPVmngYwJ7UFV7iIl+6c7Mu+gblwbzF&#10;6y1JddKaRDoPhZL2c7F7zxAQqDd+p9jjIiHBhrFhu7x2dJO1A8Cy1g+r0U3Lm4xwYMwrnH2he5Ol&#10;DALEGyEJrOLWaExRN/xQRMVEZMAk4roHA/IYKgTYF/DLzlR1Lv+1uRncGgalbwLu8ZNhNXP9MACe&#10;jH/gz8zaIO6TgreC6Ayp9BpBvJYkvYKE2SwECkJwjgTcWDTXAKoYg4ANPDY0xYaPGiMPmlAeIJgD&#10;1ap8Smu8kNhZJE9S0NTKz83W8AHCaduMNtfZc/5bC33hq+wiS2PryH4Gwchob4Wst7VjFvEQwToD&#10;T4JgQkLPiFizbpt1w3IDkL7wm+ctKwBLk3TN1T+bvysnQwc6Lp+UDJZR5J1hou5UAceqiwHfQAYG&#10;8DR4llCeFM9Mjcn7tCfu0YyHlovJ96cPOYEJBnI2d0vFXUymEDKEJUVJspj1tPD9QPkSqiRVuYSX&#10;qpX8AsvIM3tti1/fN+y/s2swvFJ1mwGRA4ySYEsCVpKsSyAhoh9FYEUQMb/JGpA2cOAF+v7H/3Ls&#10;jQCOLxsAf+f805cVgO/6meH/u+PV9IumbFJKwBADwqTqC9qAPQMKDMg3QM0gmCF/dkw8FMyo24+P&#10;0X0A9qKz0pV3pHC7xEXS9W8oDITX5/rMDtVFYIsAJQBLxiBMWAQRZ5BTOn/EM0p/9v9MvWehaNNL&#10;roLP2L58GdFrc4UzR8+Qb+QgjHvbZTjeMKZaNYMCA+EZmCqjOklHy+P2lyeO0e3VOXoAK5y9sVrX&#10;rKfNrKe/A9B33OPOx/sG6JrcgH57biC41O5mhxAP8haZjIm4cRPpSA07jpYXXVh820P3lO5YDukN&#10;ACo8tHyb5L6ariv2YZS9+owz6LiAWzOE1kBgEMwC1Qn5xNRh+lxlmu4G8BgA5AodoC1t8d7paf7f&#10;c7P2P8sj8rXFfnNzcUS/0e3Va2QuLjA1AtAiomcSR8ozGN2sruwfts7GMoXnVP/w8jghUtpdG89U&#10;N4pQw/jUMNuMTDRCypvh6uxReqA2Zd1enaMvAzgglrli4MDh3Seck7DUtW5QWFjGYqBQoxQG+II3&#10;hy+MHVh//sBaeUNxRL/F6TXnOV0MWAwmCU4GN4YEp8gDG7fZ1y8bADduW56quMnjeM3AGlwUlgwo&#10;jIAn2EB7jNqs2Dt7TH5pdgx3Vuf424BZsYJqAol1I7i+u0ev1YxnIbFfCBwHoQJgSXFLYeAAyBvG&#10;IDM2wmArNJ118Ji5C8AKNQnf//3SC/h+3/jpH8v36auLQ+Ydbh9fkesLiiQjmsYYgpAa67aq6x/7&#10;nPe3ACZOOQCPPLk8GdEbXmndoDi0uRKCNOCX4U8f44d0xb5HkvUlAp7p6QV6eldWea3ZsE0f3rev&#10;v28w+KgQumYY0wAfATAO5kkwZhgoA6gl0owAiwkuAQUQ9ZBEPwhDAlgLRo8iyoU162jgy79baeU8&#10;Nn7wCMZxy0hp3WeCZ82ru4dxfe86fmOu1+yQdsQnFvvFrqA7fC2Au045AIPuU29rqlBt27AJN2Ey&#10;wNwx7J0+Rl8Rgbp7fCz8NhDMrZIS1XQ9d1TdMzhq/Vr/gH9uLeA1AK+Brk+rbGjNl0Qckta/RGm+&#10;IYhAhmGRwO5x+1O9A61ntK3E8rwxH8A3p4/hm97cuk1M4ZXFgfDGrkF+bX4w6BnZzD/7vfur955q&#10;k0Htf+bUx5/XbLVeU9mPp8aPi9tDT34JiA6iq3t19qW5oHvo+IFjU3eu2+KeS6yjHDpwZqRWbOpn&#10;mg9RMgQ7iX/FWTOWZvhz1swPdod3YdWuQ/sAfHLn2qF/9sbtC1Wx9vY1Su3aus7ZhlNMTKut65xT&#10;/vWCsv7qwSfDuwBMrzZp127tm6B7ds7JXy0OYMijKMAvklZuTbn71KIineN+0LYCju6xvmUq8nur&#10;/Ts/8eJsgBfxMICHz9uSX797vHLKbXG1e3xZMnAOHJj08HJalbL60b799OVzhuV7JCPKKCGOp69z&#10;Q+/oxtLOuB+hibIYTUXwCy+KOzetE/7L6ftPev7BV6w/9SW7ajne5GW6zKH9fMcrzhI3q4Kxwjhq&#10;E5V4ctptC2gYI5f2HqQAsCTh2Jh88ocveF/sbGcbAP7wBa+zC23WeaNd35gYCx8bOS28BBzVU1BS&#10;Z5yd2ZGd0smRJymIASPw1HPh5847Wxzt7GYbAJ53tujsQttVnh4/lLtzaJO4RFiAFkkfaY4nLKGx&#10;KSVROoBaCqA0IybGDtLdnX1cAIBjB6mzCwusYzL4/Lrt8j/0r+f1zCIZLZcCMBqinWkJZwABAykI&#10;Rw+Irypt/6CziwsAUGm7swsLLY0fTx1T9w9sCN9HQBS2SmxB2dTokgkwDCkE/BLCHz+r73AHoDub&#10;uAAA3QHT2YVF1vRRdXu1ZH7a7jY5zfXpSoSmKjkTCUYpCONH6fHpSf56Z/cWAeD0ZEcFL0rJTIcP&#10;rjksvruhF1dwlNiOlGwWSSkp0poV9gmPP+HdNbjx1MdSX/YAHNzY0RBL0MOVY/vcO9edIa4QDmCS&#10;kZuIvF8mACYaISZhMDchju3daz7X2bclAHDv3o4KXpIzYgX3bj7X+o2hTbQ5QFIsHM11iPyQJL1M&#10;4Ng+fLmX7Kc7u7YEAPZSxwlZ0gqx58VnzX3Dm9SvNLSQYQGAQdGsa1Tn4B/dZ25fv0l2ruylAHD9&#10;JtnZhSWuQ7v1HaVp+sVcP+cM13vtJ3FfCYFj+8PHnnyu9kBnt5YIwCefq3V2YYmLWT10dC8/eNqA&#10;eAMn41lNMj2JoX3CkT1857nnOTOd3VoiAM89z+nswtKX98Iz4Wc37bTfIGxErdXisToKjPEj5uDB&#10;3eaezjadAAAP7u6YKieycjnrvqkj/OzAZpzJOlLB0FFJ6fE9dN/Z59nPd3bpBAB49nkdJ+QE15FD&#10;L+CuvlH+HSCSfmQYlSlUj+41/9rZnhME4NEODXPielirW7fuxPvyfTygfYYtgMN7zQNP76k81Nmd&#10;EwTg03sqnV04UWcE6ofrnnXu33mR+GltGL5H/OgPqp/qX0N+Z3dOEID9azqhuBNfmr/7WOVTW7YV&#10;bsp3wTnwovnhwQP6C519ORkn5EAnFHcya9+c/81L9+QeOnunfN0Pnqh+5vTt1mRnV04CgKdvtzq7&#10;cBLrdFi155/xb+/J2Wd+7+nZuzo7cpIA/N7TnV4/J7vW5nL3zsz4k2NTtRc7u3Fy6/8BWepwxH8X&#10;1mwAAAAldEVYdGRhdGU6Y3JlYXRlADIwMTktMTEtMjJUMjI6NDA6MDcrMDA6MDDBRy9fAAAAJXRF&#10;WHRkYXRlOm1vZGlmeQAyMDE5LTExLTIyVDIyOjQwOjA3KzAwOjAwsBqX4wAAAABJRU5ErkJggg==&#10;"
       id="image1-86"
       x="328.61426"
       y="245.64465" /></g></svg>
